G75*
%MOIN*%
%OFA0B0*%
%FSLAX25Y25*%
%IPPOS*%
%LPD*%
%AMOC8*
5,1,8,0,0,1.08239X$1,22.5*
%
%ADD10C,0.11024*%
%ADD11R,0.05906X0.05118*%
%ADD12R,0.05118X0.05906*%
%ADD13R,0.05000X0.05787*%
%ADD14R,0.05512X0.03937*%
%ADD15C,0.05200*%
%ADD16OC8,0.07400*%
%ADD17R,0.04724X0.04724*%
%ADD18C,0.15748*%
%ADD19R,0.06299X0.07098*%
%ADD20C,0.06496*%
%ADD21R,0.02200X0.07800*%
%ADD22C,0.01600*%
%ADD23C,0.03962*%
%ADD24C,0.01200*%
%ADD25C,0.03200*%
%ADD26C,0.02000*%
%ADD27C,0.10000*%
D10*
X0075043Y0098933D03*
X0102602Y0098933D03*
X0220949Y0098933D03*
X0248508Y0098933D03*
X0375043Y0098933D03*
X0402602Y0098933D03*
X0520949Y0098933D03*
X0548508Y0098933D03*
D11*
X0560250Y0095193D03*
X0560250Y0102673D03*
X0447750Y0102673D03*
X0447750Y0095193D03*
X0414000Y0111443D03*
X0405250Y0116443D03*
X0414000Y0118923D03*
X0405250Y0123923D03*
X0364000Y0117673D03*
X0364000Y0110193D03*
X0210875Y0087048D03*
X0210875Y0079568D03*
X0186500Y0079568D03*
X0186500Y0087048D03*
X0162125Y0087048D03*
X0162125Y0079568D03*
X0137750Y0079568D03*
X0137750Y0087048D03*
X0113375Y0087048D03*
X0113375Y0079568D03*
X0089000Y0079568D03*
X0089000Y0087048D03*
X0064625Y0087048D03*
X0064625Y0079568D03*
D12*
X0335260Y0080183D03*
X0342740Y0080183D03*
X0342740Y0071433D03*
X0335260Y0071433D03*
X0356510Y0101433D03*
X0363990Y0101433D03*
X0373385Y0116433D03*
X0380865Y0116433D03*
X0389635Y0116433D03*
X0397115Y0116433D03*
D13*
X0293090Y0116433D03*
X0276160Y0116433D03*
D14*
X0353419Y0079558D03*
X0362081Y0075818D03*
X0362081Y0083298D03*
X0421544Y0112068D03*
X0421544Y0119548D03*
X0430206Y0115808D03*
D15*
X0321500Y0064658D02*
X0321500Y0059458D01*
X0311500Y0059458D02*
X0311500Y0064658D01*
X0301500Y0064658D02*
X0301500Y0059458D01*
D16*
X0299000Y0135183D03*
X0289000Y0135183D03*
X0279000Y0135183D03*
X0279000Y0145183D03*
X0289000Y0145183D03*
X0299000Y0145183D03*
D17*
X0210875Y0103067D03*
X0210875Y0094799D03*
X0186500Y0094799D03*
X0186500Y0103067D03*
X0162125Y0103067D03*
X0162125Y0094799D03*
X0137750Y0094799D03*
X0137750Y0103067D03*
X0113375Y0103067D03*
X0113375Y0094799D03*
X0089000Y0094799D03*
X0089000Y0103067D03*
X0064625Y0103067D03*
X0064625Y0094799D03*
D18*
X0281579Y0092280D03*
X0341421Y0105587D03*
D19*
X0335902Y0089558D03*
X0347098Y0089558D03*
D20*
X0350250Y0136935D02*
X0350250Y0143431D01*
X0340250Y0143431D02*
X0340250Y0136935D01*
X0330250Y0136935D02*
X0330250Y0143431D01*
D21*
X0456500Y0108633D03*
X0461500Y0108633D03*
X0466500Y0108633D03*
X0471500Y0108633D03*
X0476500Y0108633D03*
X0481500Y0108633D03*
X0486500Y0108633D03*
X0486500Y0089233D03*
X0481500Y0089233D03*
X0476500Y0089233D03*
X0471500Y0089233D03*
X0466500Y0089233D03*
X0461500Y0089233D03*
X0456500Y0089233D03*
D22*
X0090250Y0048308D02*
X0064625Y0073933D01*
X0064625Y0079568D01*
X0069978Y0078896D02*
X0083647Y0078896D01*
X0083647Y0080494D02*
X0069978Y0080494D01*
X0069978Y0082093D02*
X0083647Y0082093D01*
X0083647Y0082604D02*
X0083647Y0076531D01*
X0084013Y0075649D01*
X0084688Y0074974D01*
X0085570Y0074609D01*
X0085800Y0074609D01*
X0085800Y0073297D01*
X0086287Y0072120D01*
X0087187Y0071220D01*
X0106900Y0051508D01*
X0091575Y0051508D01*
X0068352Y0074732D01*
X0068937Y0074974D01*
X0069612Y0075649D01*
X0069978Y0076531D01*
X0069978Y0082604D01*
X0069686Y0083308D01*
X0069978Y0084012D01*
X0069978Y0090085D01*
X0069612Y0090967D01*
X0069162Y0091417D01*
X0069387Y0091960D01*
X0069387Y0094293D01*
X0069534Y0094102D01*
X0070212Y0093424D01*
X0070972Y0092840D01*
X0071802Y0092361D01*
X0072688Y0091994D01*
X0073614Y0091746D01*
X0074243Y0091663D01*
X0074243Y0098133D01*
X0075843Y0098133D01*
X0075843Y0091663D01*
X0076473Y0091746D01*
X0077399Y0091994D01*
X0078284Y0092361D01*
X0079114Y0092840D01*
X0079875Y0093424D01*
X0080552Y0094102D01*
X0081136Y0094862D01*
X0081615Y0095692D01*
X0081982Y0096578D01*
X0082230Y0097504D01*
X0082313Y0098133D01*
X0075843Y0098133D01*
X0075843Y0099733D01*
X0074243Y0099733D01*
X0074243Y0106203D01*
X0073614Y0106120D01*
X0072688Y0105872D01*
X0071802Y0105505D01*
X0070972Y0105026D01*
X0070212Y0104442D01*
X0069534Y0103764D01*
X0068951Y0103004D01*
X0068767Y0102686D01*
X0065006Y0102686D01*
X0065006Y0103448D01*
X0064244Y0103448D01*
X0064244Y0107229D01*
X0062026Y0107229D01*
X0061568Y0107106D01*
X0061158Y0106869D01*
X0060822Y0106534D01*
X0060585Y0106124D01*
X0060463Y0105666D01*
X0060463Y0103448D01*
X0064244Y0103448D01*
X0064244Y0102686D01*
X0060463Y0102686D01*
X0060463Y0100468D01*
X0060585Y0100010D01*
X0060822Y0099599D01*
X0061131Y0099291D01*
X0060903Y0099196D01*
X0060228Y0098521D01*
X0059863Y0097639D01*
X0059863Y0091960D01*
X0060088Y0091417D01*
X0059638Y0090967D01*
X0059272Y0090085D01*
X0059272Y0085989D01*
X0059084Y0086516D01*
X0057653Y0092228D01*
X0056789Y0098052D01*
X0056524Y0103449D01*
X0057561Y0110667D01*
X0059780Y0118223D01*
X0063052Y0125388D01*
X0067310Y0132013D01*
X0072468Y0137965D01*
X0078420Y0143123D01*
X0085045Y0147381D01*
X0092210Y0150653D01*
X0099766Y0152872D01*
X0107149Y0153933D01*
X0273850Y0153933D01*
X0273162Y0153246D01*
X0273162Y0153246D01*
X0260037Y0140121D01*
X0259550Y0138945D01*
X0259550Y0122047D01*
X0260037Y0120870D01*
X0260937Y0119970D01*
X0260937Y0119970D01*
X0265244Y0115664D01*
X0265244Y0114937D01*
X0265911Y0113326D01*
X0267143Y0112094D01*
X0268754Y0111427D01*
X0270496Y0111427D01*
X0271827Y0111978D01*
X0272160Y0111645D01*
X0272160Y0107173D01*
X0272769Y0105703D01*
X0276983Y0101489D01*
X0275270Y0100501D01*
X0273357Y0098588D01*
X0272005Y0096245D01*
X0271305Y0093632D01*
X0271305Y0092404D01*
X0254213Y0109496D01*
X0253313Y0110396D01*
X0252137Y0110883D01*
X0237738Y0110883D01*
X0236562Y0110396D01*
X0232187Y0106021D01*
X0231287Y0105121D01*
X0230800Y0103945D01*
X0230800Y0092134D01*
X0221425Y0082758D01*
X0216164Y0082758D01*
X0215936Y0083308D01*
X0216228Y0084012D01*
X0216228Y0090085D01*
X0215862Y0090967D01*
X0215412Y0091417D01*
X0215637Y0091960D01*
X0215637Y0093056D01*
X0216467Y0092226D01*
X0219375Y0091021D01*
X0222523Y0091021D01*
X0225430Y0092226D01*
X0227656Y0094451D01*
X0228861Y0097359D01*
X0228861Y0100507D01*
X0227656Y0103415D01*
X0225430Y0105640D01*
X0222523Y0106845D01*
X0219375Y0106845D01*
X0216467Y0105640D01*
X0215037Y0104210D01*
X0215037Y0105666D01*
X0214915Y0106124D01*
X0214678Y0106534D01*
X0214342Y0106869D01*
X0213932Y0107106D01*
X0213474Y0107229D01*
X0211256Y0107229D01*
X0211256Y0103448D01*
X0210494Y0103448D01*
X0210494Y0107229D01*
X0208276Y0107229D01*
X0207818Y0107106D01*
X0207408Y0106869D01*
X0207072Y0106534D01*
X0206835Y0106124D01*
X0206713Y0105666D01*
X0206713Y0103448D01*
X0210494Y0103448D01*
X0210494Y0102686D01*
X0206713Y0102686D01*
X0206713Y0100468D01*
X0206835Y0100010D01*
X0207072Y0099599D01*
X0207381Y0099291D01*
X0207153Y0099196D01*
X0206478Y0098521D01*
X0206113Y0097639D01*
X0206113Y0091960D01*
X0206338Y0091417D01*
X0205888Y0090967D01*
X0205522Y0090085D01*
X0205522Y0084012D01*
X0205814Y0083308D01*
X0205522Y0082604D01*
X0205522Y0076531D01*
X0205888Y0075649D01*
X0206563Y0074974D01*
X0207445Y0074609D01*
X0214305Y0074609D01*
X0215187Y0074974D01*
X0215862Y0075649D01*
X0216156Y0076358D01*
X0223387Y0076358D01*
X0224563Y0076845D01*
X0225463Y0077745D01*
X0236713Y0088995D01*
X0237200Y0090172D01*
X0237200Y0101983D01*
X0239700Y0104483D01*
X0242869Y0104483D01*
X0241801Y0103415D01*
X0240596Y0100507D01*
X0240596Y0097359D01*
X0241801Y0094451D01*
X0244026Y0092226D01*
X0246934Y0091021D01*
X0250082Y0091021D01*
X0252990Y0092226D01*
X0254332Y0093569D01*
X0268750Y0079151D01*
X0268750Y0063709D01*
X0262688Y0069771D01*
X0261512Y0070258D01*
X0261506Y0070258D01*
X0261506Y0071055D01*
X0260839Y0072665D01*
X0259607Y0073897D01*
X0257996Y0074564D01*
X0256254Y0074564D01*
X0254643Y0073897D01*
X0253411Y0072665D01*
X0252744Y0071055D01*
X0252744Y0070258D01*
X0170325Y0070258D01*
X0165852Y0074732D01*
X0166437Y0074974D01*
X0167112Y0075649D01*
X0167478Y0076531D01*
X0167478Y0082604D01*
X0167186Y0083308D01*
X0167478Y0084012D01*
X0167478Y0090085D01*
X0167112Y0090967D01*
X0166662Y0091417D01*
X0166887Y0091960D01*
X0166887Y0097639D01*
X0166522Y0098521D01*
X0165847Y0099196D01*
X0165619Y0099291D01*
X0165928Y0099599D01*
X0166165Y0100010D01*
X0166287Y0100468D01*
X0166287Y0102686D01*
X0162506Y0102686D01*
X0162506Y0103448D01*
X0161744Y0103448D01*
X0161744Y0107229D01*
X0159526Y0107229D01*
X0159068Y0107106D01*
X0158658Y0106869D01*
X0158322Y0106534D01*
X0158085Y0106124D01*
X0157963Y0105666D01*
X0157963Y0103448D01*
X0161744Y0103448D01*
X0161744Y0102686D01*
X0157963Y0102686D01*
X0157963Y0100468D01*
X0158085Y0100010D01*
X0158322Y0099599D01*
X0158631Y0099291D01*
X0158403Y0099196D01*
X0157728Y0098521D01*
X0157363Y0097639D01*
X0157363Y0091960D01*
X0157588Y0091417D01*
X0157138Y0090967D01*
X0156772Y0090085D01*
X0156772Y0084012D01*
X0157064Y0083308D01*
X0156772Y0082604D01*
X0156772Y0076531D01*
X0157138Y0075649D01*
X0157813Y0074974D01*
X0158695Y0074609D01*
X0158925Y0074609D01*
X0158925Y0073297D01*
X0159412Y0072120D01*
X0160312Y0071220D01*
X0165650Y0065883D01*
X0150325Y0065883D01*
X0141477Y0074732D01*
X0142062Y0074974D01*
X0142737Y0075649D01*
X0143103Y0076531D01*
X0143103Y0082604D01*
X0142811Y0083308D01*
X0143103Y0084012D01*
X0143103Y0090085D01*
X0142737Y0090967D01*
X0142287Y0091417D01*
X0142512Y0091960D01*
X0142512Y0097639D01*
X0142147Y0098521D01*
X0141472Y0099196D01*
X0141244Y0099291D01*
X0141553Y0099599D01*
X0141790Y0100010D01*
X0141912Y0100468D01*
X0141912Y0102686D01*
X0138131Y0102686D01*
X0138131Y0103448D01*
X0137369Y0103448D01*
X0137369Y0107229D01*
X0135151Y0107229D01*
X0134693Y0107106D01*
X0134283Y0106869D01*
X0133947Y0106534D01*
X0133710Y0106124D01*
X0133588Y0105666D01*
X0133588Y0103448D01*
X0137369Y0103448D01*
X0137369Y0102686D01*
X0133588Y0102686D01*
X0133588Y0100468D01*
X0133710Y0100010D01*
X0133947Y0099599D01*
X0134256Y0099291D01*
X0134028Y0099196D01*
X0133353Y0098521D01*
X0132988Y0097639D01*
X0132988Y0091960D01*
X0133213Y0091417D01*
X0132763Y0090967D01*
X0132397Y0090085D01*
X0132397Y0084012D01*
X0132689Y0083308D01*
X0132397Y0082604D01*
X0132397Y0076531D01*
X0132763Y0075649D01*
X0133438Y0074974D01*
X0134320Y0074609D01*
X0134550Y0074609D01*
X0134550Y0073297D01*
X0135037Y0072120D01*
X0145650Y0061508D01*
X0130325Y0061508D01*
X0117102Y0074732D01*
X0117687Y0074974D01*
X0118362Y0075649D01*
X0118728Y0076531D01*
X0118728Y0082604D01*
X0118436Y0083308D01*
X0118728Y0084012D01*
X0118728Y0090085D01*
X0118362Y0090967D01*
X0117912Y0091417D01*
X0118137Y0091960D01*
X0118137Y0097639D01*
X0117772Y0098521D01*
X0117097Y0099196D01*
X0116869Y0099291D01*
X0117178Y0099599D01*
X0117415Y0100010D01*
X0117537Y0100468D01*
X0117537Y0102686D01*
X0113756Y0102686D01*
X0113756Y0103448D01*
X0112994Y0103448D01*
X0112994Y0107229D01*
X0110776Y0107229D01*
X0110318Y0107106D01*
X0109908Y0106869D01*
X0109572Y0106534D01*
X0109335Y0106124D01*
X0109213Y0105666D01*
X0109213Y0103448D01*
X0112994Y0103448D01*
X0112994Y0102686D01*
X0109213Y0102686D01*
X0109213Y0102081D01*
X0109174Y0102174D01*
X0108695Y0103004D01*
X0108111Y0103764D01*
X0107434Y0104442D01*
X0106673Y0105026D01*
X0105843Y0105505D01*
X0104958Y0105872D01*
X0104032Y0106120D01*
X0103402Y0106203D01*
X0103402Y0099733D01*
X0101802Y0099733D01*
X0101802Y0098133D01*
X0095333Y0098133D01*
X0095416Y0097504D01*
X0095664Y0096578D01*
X0096031Y0095692D01*
X0096510Y0094862D01*
X0097093Y0094102D01*
X0097771Y0093424D01*
X0098531Y0092840D01*
X0099361Y0092361D01*
X0100247Y0091994D01*
X0101173Y0091746D01*
X0101802Y0091663D01*
X0101802Y0098133D01*
X0103402Y0098133D01*
X0103402Y0091663D01*
X0104032Y0091746D01*
X0104958Y0091994D01*
X0105843Y0092361D01*
X0106673Y0092840D01*
X0107434Y0093424D01*
X0108111Y0094102D01*
X0108613Y0094755D01*
X0108613Y0091960D01*
X0108838Y0091417D01*
X0108388Y0090967D01*
X0108022Y0090085D01*
X0108022Y0084012D01*
X0108314Y0083308D01*
X0108022Y0082604D01*
X0108022Y0076531D01*
X0108388Y0075649D01*
X0109063Y0074974D01*
X0109945Y0074609D01*
X0110175Y0074609D01*
X0110175Y0073297D01*
X0110662Y0072120D01*
X0111562Y0071220D01*
X0126900Y0055883D01*
X0111575Y0055883D01*
X0092727Y0074732D01*
X0093312Y0074974D01*
X0093987Y0075649D01*
X0094353Y0076531D01*
X0094353Y0082604D01*
X0094061Y0083308D01*
X0094353Y0084012D01*
X0094353Y0090085D01*
X0093987Y0090967D01*
X0093537Y0091417D01*
X0093762Y0091960D01*
X0093762Y0097639D01*
X0093397Y0098521D01*
X0092722Y0099196D01*
X0092494Y0099291D01*
X0092803Y0099599D01*
X0093040Y0100010D01*
X0093162Y0100468D01*
X0093162Y0102686D01*
X0089381Y0102686D01*
X0089381Y0103448D01*
X0088619Y0103448D01*
X0088619Y0107229D01*
X0086401Y0107229D01*
X0085943Y0107106D01*
X0085533Y0106869D01*
X0085197Y0106534D01*
X0084960Y0106124D01*
X0084838Y0105666D01*
X0084838Y0103448D01*
X0088619Y0103448D01*
X0088619Y0102686D01*
X0084838Y0102686D01*
X0084838Y0100468D01*
X0084960Y0100010D01*
X0085197Y0099599D01*
X0085506Y0099291D01*
X0085278Y0099196D01*
X0084603Y0098521D01*
X0084238Y0097639D01*
X0084238Y0091960D01*
X0084463Y0091417D01*
X0084013Y0090967D01*
X0083647Y0090085D01*
X0083647Y0084012D01*
X0083939Y0083308D01*
X0083647Y0082604D01*
X0083780Y0083691D02*
X0069845Y0083691D01*
X0069978Y0085290D02*
X0083647Y0085290D01*
X0083647Y0086888D02*
X0069978Y0086888D01*
X0069978Y0088487D02*
X0083647Y0088487D01*
X0083648Y0090085D02*
X0069977Y0090085D01*
X0069273Y0091684D02*
X0074088Y0091684D01*
X0074243Y0091684D02*
X0075843Y0091684D01*
X0075999Y0091684D02*
X0084352Y0091684D01*
X0084238Y0093282D02*
X0079690Y0093282D01*
X0081147Y0094881D02*
X0084238Y0094881D01*
X0084238Y0096479D02*
X0081941Y0096479D01*
X0082306Y0098078D02*
X0084420Y0098078D01*
X0085153Y0099677D02*
X0075843Y0099677D01*
X0075843Y0099733D02*
X0082313Y0099733D01*
X0082230Y0100363D01*
X0081982Y0101288D01*
X0081615Y0102174D01*
X0081136Y0103004D01*
X0080552Y0103764D01*
X0079875Y0104442D01*
X0079114Y0105026D01*
X0078284Y0105505D01*
X0077399Y0105872D01*
X0076473Y0106120D01*
X0075843Y0106203D01*
X0075843Y0099733D01*
X0075843Y0101275D02*
X0074243Y0101275D01*
X0074243Y0102874D02*
X0075843Y0102874D01*
X0075843Y0104472D02*
X0074243Y0104472D01*
X0074243Y0106071D02*
X0075843Y0106071D01*
X0076657Y0106071D02*
X0084946Y0106071D01*
X0084838Y0104472D02*
X0079836Y0104472D01*
X0081211Y0102874D02*
X0088619Y0102874D01*
X0089381Y0102874D02*
X0096434Y0102874D01*
X0096510Y0103004D02*
X0096031Y0102174D01*
X0095664Y0101288D01*
X0095416Y0100363D01*
X0095333Y0099733D01*
X0101802Y0099733D01*
X0101802Y0106203D01*
X0101173Y0106120D01*
X0100247Y0105872D01*
X0099361Y0105505D01*
X0098531Y0105026D01*
X0097771Y0104442D01*
X0097093Y0103764D01*
X0096510Y0103004D01*
X0095660Y0101275D02*
X0093162Y0101275D01*
X0092847Y0099677D02*
X0101802Y0099677D01*
X0101802Y0101275D02*
X0103402Y0101275D01*
X0103402Y0102874D02*
X0101802Y0102874D01*
X0101802Y0104472D02*
X0103402Y0104472D01*
X0103402Y0106071D02*
X0101802Y0106071D01*
X0100989Y0106071D02*
X0093054Y0106071D01*
X0093040Y0106124D02*
X0092803Y0106534D01*
X0092467Y0106869D01*
X0092057Y0107106D01*
X0091599Y0107229D01*
X0089381Y0107229D01*
X0089381Y0103448D01*
X0093162Y0103448D01*
X0093162Y0105666D01*
X0093040Y0106124D01*
X0093162Y0104472D02*
X0097810Y0104472D01*
X0104216Y0106071D02*
X0109321Y0106071D01*
X0109213Y0104472D02*
X0107395Y0104472D01*
X0108770Y0102874D02*
X0112994Y0102874D01*
X0113756Y0102874D02*
X0137369Y0102874D01*
X0138131Y0102874D02*
X0161744Y0102874D01*
X0162506Y0102874D02*
X0186119Y0102874D01*
X0186119Y0102686D02*
X0182338Y0102686D01*
X0182338Y0100468D01*
X0182460Y0100010D01*
X0182697Y0099599D01*
X0183006Y0099291D01*
X0182778Y0099196D01*
X0182103Y0098521D01*
X0181738Y0097639D01*
X0181738Y0091960D01*
X0181963Y0091417D01*
X0181513Y0090967D01*
X0181147Y0090085D01*
X0181147Y0084012D01*
X0181439Y0083308D01*
X0181147Y0082604D01*
X0181147Y0076531D01*
X0181513Y0075649D01*
X0182188Y0074974D01*
X0183070Y0074609D01*
X0189930Y0074609D01*
X0190812Y0074974D01*
X0191487Y0075649D01*
X0191840Y0076500D01*
X0192697Y0076855D01*
X0193598Y0077755D01*
X0196088Y0080245D01*
X0196575Y0081422D01*
X0196575Y0103858D01*
X0220950Y0128233D01*
X0251004Y0128233D01*
X0251518Y0127719D01*
X0253129Y0127052D01*
X0254871Y0127052D01*
X0256482Y0127719D01*
X0257714Y0128951D01*
X0258381Y0130562D01*
X0258381Y0132305D01*
X0257714Y0133915D01*
X0256482Y0135147D01*
X0254871Y0135814D01*
X0253129Y0135814D01*
X0251518Y0135147D01*
X0251004Y0134633D01*
X0218988Y0134633D01*
X0217812Y0134146D01*
X0216912Y0133246D01*
X0190662Y0106996D01*
X0190401Y0106364D01*
X0190303Y0106534D01*
X0189967Y0106869D01*
X0189557Y0107106D01*
X0189099Y0107229D01*
X0186881Y0107229D01*
X0186881Y0103448D01*
X0186119Y0103448D01*
X0186119Y0107229D01*
X0183901Y0107229D01*
X0183443Y0107106D01*
X0183033Y0106869D01*
X0182697Y0106534D01*
X0182460Y0106124D01*
X0182338Y0105666D01*
X0182338Y0103448D01*
X0186119Y0103448D01*
X0186119Y0102686D01*
X0186119Y0104472D02*
X0186881Y0104472D01*
X0186881Y0106071D02*
X0186119Y0106071D01*
X0182446Y0106071D02*
X0166179Y0106071D01*
X0166165Y0106124D02*
X0165928Y0106534D01*
X0165592Y0106869D01*
X0165182Y0107106D01*
X0164724Y0107229D01*
X0162506Y0107229D01*
X0162506Y0103448D01*
X0166287Y0103448D01*
X0166287Y0105666D01*
X0166165Y0106124D01*
X0166287Y0104472D02*
X0182338Y0104472D01*
X0182338Y0101275D02*
X0166287Y0101275D01*
X0165972Y0099677D02*
X0182653Y0099677D01*
X0181920Y0098078D02*
X0166705Y0098078D01*
X0166887Y0096479D02*
X0181738Y0096479D01*
X0181738Y0094881D02*
X0166887Y0094881D01*
X0166887Y0093282D02*
X0181738Y0093282D01*
X0181852Y0091684D02*
X0166773Y0091684D01*
X0167477Y0090085D02*
X0181148Y0090085D01*
X0181147Y0088487D02*
X0167478Y0088487D01*
X0167478Y0086888D02*
X0181147Y0086888D01*
X0181147Y0085290D02*
X0167478Y0085290D01*
X0167345Y0083691D02*
X0181280Y0083691D01*
X0181147Y0082093D02*
X0167478Y0082093D01*
X0167478Y0080494D02*
X0181147Y0080494D01*
X0181147Y0078896D02*
X0167478Y0078896D01*
X0167478Y0077297D02*
X0181147Y0077297D01*
X0181492Y0075699D02*
X0167133Y0075699D01*
X0166483Y0074100D02*
X0255134Y0074100D01*
X0253343Y0072502D02*
X0168082Y0072502D01*
X0169680Y0070903D02*
X0252744Y0070903D01*
X0257125Y0070183D02*
X0257125Y0067058D01*
X0169000Y0067058D01*
X0162125Y0073933D01*
X0162125Y0079568D01*
X0156772Y0078896D02*
X0143103Y0078896D01*
X0143103Y0080494D02*
X0156772Y0080494D01*
X0156772Y0082093D02*
X0143103Y0082093D01*
X0142970Y0083691D02*
X0156905Y0083691D01*
X0156772Y0085290D02*
X0143103Y0085290D01*
X0143103Y0086888D02*
X0156772Y0086888D01*
X0156772Y0088487D02*
X0143103Y0088487D01*
X0143102Y0090085D02*
X0156773Y0090085D01*
X0157477Y0091684D02*
X0142398Y0091684D01*
X0142512Y0093282D02*
X0157363Y0093282D01*
X0157363Y0094881D02*
X0142512Y0094881D01*
X0142512Y0096479D02*
X0157363Y0096479D01*
X0157545Y0098078D02*
X0142330Y0098078D01*
X0141597Y0099677D02*
X0158278Y0099677D01*
X0157963Y0101275D02*
X0141912Y0101275D01*
X0141912Y0103448D02*
X0141912Y0105666D01*
X0141790Y0106124D01*
X0141553Y0106534D01*
X0141217Y0106869D01*
X0140807Y0107106D01*
X0140349Y0107229D01*
X0138131Y0107229D01*
X0138131Y0103448D01*
X0141912Y0103448D01*
X0141912Y0104472D02*
X0157963Y0104472D01*
X0158071Y0106071D02*
X0141804Y0106071D01*
X0138131Y0106071D02*
X0137369Y0106071D01*
X0137369Y0104472D02*
X0138131Y0104472D01*
X0133588Y0104472D02*
X0117537Y0104472D01*
X0117537Y0103448D02*
X0117537Y0105666D01*
X0117415Y0106124D01*
X0117178Y0106534D01*
X0116842Y0106869D01*
X0116432Y0107106D01*
X0115974Y0107229D01*
X0113756Y0107229D01*
X0113756Y0103448D01*
X0117537Y0103448D01*
X0117537Y0101275D02*
X0133588Y0101275D01*
X0133903Y0099677D02*
X0117222Y0099677D01*
X0117955Y0098078D02*
X0133170Y0098078D01*
X0132988Y0096479D02*
X0118137Y0096479D01*
X0118137Y0094881D02*
X0132988Y0094881D01*
X0132988Y0093282D02*
X0118137Y0093282D01*
X0118023Y0091684D02*
X0133102Y0091684D01*
X0132398Y0090085D02*
X0118727Y0090085D01*
X0118728Y0088487D02*
X0132397Y0088487D01*
X0132397Y0086888D02*
X0118728Y0086888D01*
X0118728Y0085290D02*
X0132397Y0085290D01*
X0132530Y0083691D02*
X0118595Y0083691D01*
X0118728Y0082093D02*
X0132397Y0082093D01*
X0132397Y0080494D02*
X0118728Y0080494D01*
X0118728Y0078896D02*
X0132397Y0078896D01*
X0132397Y0077297D02*
X0118728Y0077297D01*
X0118383Y0075699D02*
X0132742Y0075699D01*
X0134550Y0074100D02*
X0117733Y0074100D01*
X0119332Y0072502D02*
X0134879Y0072502D01*
X0136254Y0070903D02*
X0120930Y0070903D01*
X0122529Y0069305D02*
X0137853Y0069305D01*
X0139451Y0067706D02*
X0124127Y0067706D01*
X0125726Y0066108D02*
X0141050Y0066108D01*
X0142648Y0064509D02*
X0127324Y0064509D01*
X0128923Y0062911D02*
X0144247Y0062911D01*
X0149000Y0062683D02*
X0137750Y0073933D01*
X0137750Y0079568D01*
X0143103Y0077297D02*
X0156772Y0077297D01*
X0157117Y0075699D02*
X0142758Y0075699D01*
X0142108Y0074100D02*
X0158925Y0074100D01*
X0159254Y0072502D02*
X0143707Y0072502D01*
X0145305Y0070903D02*
X0160629Y0070903D01*
X0162228Y0069305D02*
X0146904Y0069305D01*
X0148502Y0067706D02*
X0163826Y0067706D01*
X0165425Y0066108D02*
X0150101Y0066108D01*
X0149000Y0062683D02*
X0260875Y0062683D01*
X0279625Y0043933D01*
X0387125Y0043933D01*
X0397750Y0054558D01*
X0483375Y0054558D01*
X0493375Y0064558D01*
X0493375Y0091433D01*
X0481500Y0103308D01*
X0481500Y0108633D01*
X0481500Y0122058D01*
X0484000Y0124558D01*
X0481947Y0128450D02*
X0479700Y0128450D01*
X0479700Y0129570D02*
X0479213Y0130746D01*
X0476438Y0133521D01*
X0475262Y0134008D01*
X0474496Y0134008D01*
X0474021Y0134483D01*
X0477050Y0134483D01*
X0482750Y0128782D01*
X0481518Y0128272D01*
X0480286Y0127040D01*
X0479700Y0125625D01*
X0479700Y0129570D01*
X0479502Y0130048D02*
X0481484Y0130048D01*
X0479886Y0131647D02*
X0478312Y0131647D01*
X0478287Y0133245D02*
X0476713Y0133245D01*
X0474625Y0130808D02*
X0476500Y0128933D01*
X0476500Y0108633D01*
X0471500Y0108633D02*
X0471500Y0124558D01*
X0466500Y0126433D02*
X0466500Y0108633D01*
X0461500Y0108633D02*
X0461500Y0117058D01*
X0454000Y0124558D01*
X0458381Y0124702D02*
X0458381Y0125430D01*
X0457714Y0127040D01*
X0456482Y0128272D01*
X0454871Y0128939D01*
X0453129Y0128939D01*
X0451518Y0128272D01*
X0450286Y0127040D01*
X0449619Y0125430D01*
X0449619Y0123687D01*
X0450286Y0122076D01*
X0451518Y0120844D01*
X0453129Y0120177D01*
X0453856Y0120177D01*
X0458300Y0115733D01*
X0458300Y0114207D01*
X0458295Y0114210D01*
X0457837Y0114333D01*
X0456500Y0114333D01*
X0456500Y0108633D01*
X0456500Y0102933D01*
X0457837Y0102933D01*
X0458295Y0103056D01*
X0458541Y0103198D01*
X0459041Y0102698D01*
X0459923Y0102333D01*
X0463077Y0102333D01*
X0463959Y0102698D01*
X0464000Y0102739D01*
X0464041Y0102698D01*
X0464923Y0102333D01*
X0468077Y0102333D01*
X0468959Y0102698D01*
X0469000Y0102739D01*
X0469041Y0102698D01*
X0469923Y0102333D01*
X0473077Y0102333D01*
X0473959Y0102698D01*
X0474000Y0102739D01*
X0474041Y0102698D01*
X0474923Y0102333D01*
X0478077Y0102333D01*
X0478387Y0102461D01*
X0478787Y0101495D01*
X0484800Y0095482D01*
X0484041Y0095168D01*
X0484000Y0095127D01*
X0483959Y0095168D01*
X0483077Y0095533D01*
X0479923Y0095533D01*
X0479041Y0095168D01*
X0479000Y0095127D01*
X0478959Y0095168D01*
X0478077Y0095533D01*
X0474923Y0095533D01*
X0474041Y0095168D01*
X0474000Y0095127D01*
X0473959Y0095168D01*
X0473077Y0095533D01*
X0469923Y0095533D01*
X0469041Y0095168D01*
X0469000Y0095127D01*
X0468959Y0095168D01*
X0468077Y0095533D01*
X0464923Y0095533D01*
X0464041Y0095168D01*
X0464000Y0095127D01*
X0463959Y0095168D01*
X0463077Y0095533D01*
X0459923Y0095533D01*
X0459041Y0095168D01*
X0459000Y0095127D01*
X0458959Y0095168D01*
X0458077Y0095533D01*
X0454923Y0095533D01*
X0454041Y0095168D01*
X0453365Y0094493D01*
X0453103Y0093858D01*
X0453103Y0098229D01*
X0452737Y0099111D01*
X0452391Y0099458D01*
X0452503Y0099877D01*
X0452503Y0102194D01*
X0448230Y0102194D01*
X0448230Y0103153D01*
X0452503Y0103153D01*
X0452503Y0105469D01*
X0452380Y0105927D01*
X0452143Y0106337D01*
X0451808Y0106673D01*
X0451398Y0106910D01*
X0450940Y0107032D01*
X0448230Y0107032D01*
X0448230Y0103153D01*
X0447270Y0103153D01*
X0447270Y0102194D01*
X0442997Y0102194D01*
X0442997Y0102017D01*
X0442296Y0102308D01*
X0418000Y0102308D01*
X0418000Y0106720D01*
X0418312Y0106849D01*
X0418746Y0107283D01*
X0418831Y0107076D01*
X0420037Y0105870D01*
X0420937Y0104970D01*
X0422113Y0104483D01*
X0434637Y0104483D01*
X0435813Y0104970D01*
X0440188Y0109345D01*
X0441088Y0110245D01*
X0441575Y0111422D01*
X0441575Y0129483D01*
X0458925Y0129483D01*
X0463300Y0125108D01*
X0463300Y0119784D01*
X0458381Y0124702D01*
X0458381Y0125253D02*
X0463155Y0125253D01*
X0463300Y0123654D02*
X0459429Y0123654D01*
X0461028Y0122056D02*
X0463300Y0122056D01*
X0463300Y0120457D02*
X0462626Y0120457D01*
X0458300Y0115662D02*
X0441575Y0115662D01*
X0441575Y0117260D02*
X0456772Y0117260D01*
X0455174Y0118859D02*
X0441575Y0118859D01*
X0441575Y0120457D02*
X0452452Y0120457D01*
X0450307Y0122056D02*
X0441575Y0122056D01*
X0441575Y0123654D02*
X0449632Y0123654D01*
X0449619Y0125253D02*
X0441575Y0125253D01*
X0441575Y0126851D02*
X0450208Y0126851D01*
X0451947Y0128450D02*
X0441575Y0128450D01*
X0438375Y0132683D02*
X0438375Y0112058D01*
X0434000Y0107683D01*
X0422750Y0107683D01*
X0421544Y0108889D01*
X0421544Y0112068D01*
X0426700Y0112194D02*
X0426700Y0110883D01*
X0432675Y0110883D01*
X0435175Y0113384D01*
X0435175Y0129483D01*
X0422975Y0129483D01*
X0423357Y0129102D01*
X0424257Y0128201D01*
X0424744Y0127025D01*
X0424744Y0123917D01*
X0424778Y0123917D01*
X0425660Y0123551D01*
X0426335Y0122876D01*
X0426700Y0121994D01*
X0426700Y0119422D01*
X0426755Y0119454D01*
X0427213Y0119577D01*
X0430021Y0119577D01*
X0430021Y0115992D01*
X0430390Y0115992D01*
X0434762Y0115992D01*
X0434762Y0118014D01*
X0434639Y0118471D01*
X0434402Y0118882D01*
X0434067Y0119217D01*
X0433656Y0119454D01*
X0433199Y0119577D01*
X0430390Y0119577D01*
X0430390Y0115992D01*
X0430390Y0115624D01*
X0434762Y0115624D01*
X0434762Y0113603D01*
X0434639Y0113145D01*
X0434402Y0112734D01*
X0434067Y0112399D01*
X0433656Y0112162D01*
X0433199Y0112040D01*
X0430390Y0112040D01*
X0430390Y0115624D01*
X0430021Y0115624D01*
X0430021Y0112040D01*
X0427213Y0112040D01*
X0426755Y0112162D01*
X0426700Y0112194D01*
X0430021Y0112465D02*
X0430390Y0112465D01*
X0430390Y0114063D02*
X0430021Y0114063D01*
X0430390Y0115662D02*
X0435175Y0115662D01*
X0435175Y0117260D02*
X0434762Y0117260D01*
X0434415Y0118859D02*
X0435175Y0118859D01*
X0435175Y0120457D02*
X0426700Y0120457D01*
X0426675Y0122056D02*
X0435175Y0122056D01*
X0435175Y0123654D02*
X0425411Y0123654D01*
X0424744Y0125253D02*
X0435175Y0125253D01*
X0435175Y0126851D02*
X0424744Y0126851D01*
X0424009Y0128450D02*
X0435175Y0128450D01*
X0438375Y0132683D02*
X0395875Y0132683D01*
X0389635Y0126443D01*
X0389635Y0116433D01*
X0380865Y0116433D01*
X0377829Y0121786D02*
X0377385Y0121602D01*
X0377385Y0125177D01*
X0378621Y0125177D01*
X0380232Y0125844D01*
X0381464Y0127076D01*
X0382131Y0128687D01*
X0382131Y0130430D01*
X0381464Y0132040D01*
X0380551Y0132953D01*
X0381357Y0133758D01*
X0381536Y0133326D01*
X0382768Y0132094D01*
X0384379Y0131427D01*
X0386121Y0131427D01*
X0387732Y0132094D01*
X0388964Y0133326D01*
X0389443Y0134483D01*
X0393150Y0134483D01*
X0386922Y0128256D01*
X0386435Y0127079D01*
X0386435Y0121718D01*
X0385716Y0121420D01*
X0385250Y0120954D01*
X0384784Y0121420D01*
X0383902Y0121786D01*
X0377829Y0121786D01*
X0377385Y0122056D02*
X0386435Y0122056D01*
X0386435Y0123654D02*
X0377385Y0123654D01*
X0378804Y0125253D02*
X0386435Y0125253D01*
X0386435Y0126851D02*
X0381239Y0126851D01*
X0382033Y0128450D02*
X0387116Y0128450D01*
X0388715Y0130048D02*
X0382131Y0130048D01*
X0381627Y0131647D02*
X0383848Y0131647D01*
X0381617Y0133245D02*
X0380844Y0133245D01*
X0385250Y0135808D02*
X0387125Y0137683D01*
X0478375Y0137683D01*
X0488375Y0127683D01*
X0488375Y0115808D01*
X0494000Y0110183D01*
X0494000Y0100808D01*
X0503375Y0091433D01*
X0503375Y0073933D01*
X0506187Y0070550D02*
X0506518Y0070219D01*
X0508129Y0069552D01*
X0509871Y0069552D01*
X0511482Y0070219D01*
X0512714Y0071451D01*
X0513381Y0073062D01*
X0513381Y0074805D01*
X0512714Y0076415D01*
X0512200Y0076929D01*
X0512200Y0091445D01*
X0511713Y0092621D01*
X0509400Y0094933D01*
X0514042Y0094933D01*
X0514242Y0094451D01*
X0516467Y0092226D01*
X0519375Y0091021D01*
X0522523Y0091021D01*
X0523758Y0091533D01*
X0545698Y0091533D01*
X0546934Y0091021D01*
X0550082Y0091021D01*
X0550974Y0091391D01*
X0551452Y0091193D01*
X0555344Y0091193D01*
X0555938Y0090599D01*
X0556820Y0090234D01*
X0563680Y0090234D01*
X0564562Y0090599D01*
X0565237Y0091274D01*
X0565603Y0092156D01*
X0565603Y0098229D01*
X0565237Y0099111D01*
X0564891Y0099458D01*
X0565003Y0099877D01*
X0565003Y0102194D01*
X0560730Y0102194D01*
X0560730Y0103153D01*
X0565003Y0103153D01*
X0565003Y0105469D01*
X0564880Y0105927D01*
X0564643Y0106337D01*
X0564308Y0106673D01*
X0563898Y0106910D01*
X0563440Y0107032D01*
X0560730Y0107032D01*
X0560730Y0103153D01*
X0559770Y0103153D01*
X0559770Y0102194D01*
X0555721Y0102194D01*
X0555215Y0103415D01*
X0552990Y0105640D01*
X0550082Y0106845D01*
X0546934Y0106845D01*
X0545698Y0106333D01*
X0523758Y0106333D01*
X0522523Y0106845D01*
X0519375Y0106845D01*
X0516467Y0105640D01*
X0514242Y0103415D01*
X0514042Y0102933D01*
X0508782Y0102933D01*
X0506125Y0105590D01*
X0506125Y0112854D01*
X0505516Y0114324D01*
X0504391Y0115449D01*
X0499875Y0119965D01*
X0499875Y0132229D01*
X0499266Y0133699D01*
X0498141Y0134824D01*
X0483141Y0149824D01*
X0481671Y0150433D01*
X0478328Y0150433D01*
X0478381Y0150562D01*
X0478381Y0152305D01*
X0477714Y0153915D01*
X0477696Y0153933D01*
X0506500Y0153933D01*
X0512381Y0153644D01*
X0518205Y0152780D01*
X0523917Y0151349D01*
X0529461Y0149366D01*
X0534784Y0146848D01*
X0539834Y0143821D01*
X0544564Y0140314D01*
X0548926Y0136359D01*
X0552881Y0131997D01*
X0556388Y0127267D01*
X0559415Y0122217D01*
X0561933Y0116894D01*
X0563916Y0111350D01*
X0565347Y0105638D01*
X0566211Y0099814D01*
X0566476Y0094417D01*
X0565439Y0087199D01*
X0563220Y0079643D01*
X0559948Y0072479D01*
X0555690Y0065853D01*
X0550532Y0059901D01*
X0544580Y0054743D01*
X0537955Y0050485D01*
X0530790Y0047213D01*
X0523234Y0044995D01*
X0515851Y0043933D01*
X0391650Y0043933D01*
X0399075Y0051358D01*
X0484012Y0051358D01*
X0485188Y0051845D01*
X0495188Y0061845D01*
X0496088Y0062745D01*
X0496575Y0063922D01*
X0496575Y0069678D01*
X0496879Y0069552D01*
X0498621Y0069552D01*
X0500232Y0070219D01*
X0500562Y0070550D01*
X0500893Y0070219D01*
X0502504Y0069552D01*
X0504246Y0069552D01*
X0505857Y0070219D01*
X0506187Y0070550D01*
X0509000Y0073933D02*
X0509000Y0090808D01*
X0497125Y0102683D01*
X0497125Y0111433D01*
X0491500Y0117058D01*
X0491500Y0129558D01*
X0479625Y0141433D01*
X0385250Y0141433D01*
X0376250Y0141238D02*
X0355898Y0141238D01*
X0355898Y0142836D02*
X0376250Y0142836D01*
X0376250Y0144435D02*
X0355898Y0144435D01*
X0355898Y0144555D02*
X0355038Y0146630D01*
X0353449Y0148219D01*
X0353416Y0148233D01*
X0378893Y0148233D01*
X0376859Y0146199D01*
X0376250Y0144729D01*
X0376250Y0139965D01*
X0374843Y0138558D01*
X0363204Y0138558D01*
X0361734Y0137949D01*
X0360609Y0136824D01*
X0355563Y0131778D01*
X0354643Y0131397D01*
X0353411Y0130165D01*
X0352744Y0128555D01*
X0352744Y0126812D01*
X0352797Y0126683D01*
X0273157Y0126683D01*
X0271125Y0128715D01*
X0271125Y0130892D01*
X0271506Y0131812D01*
X0271506Y0133555D01*
X0270839Y0135165D01*
X0269607Y0136397D01*
X0267996Y0137064D01*
X0266254Y0137064D01*
X0265950Y0136938D01*
X0265950Y0136983D01*
X0272900Y0143933D01*
X0272900Y0142656D01*
X0275373Y0140183D01*
X0272900Y0137710D01*
X0272900Y0132656D01*
X0276473Y0129083D01*
X0281527Y0129083D01*
X0284000Y0131556D01*
X0286473Y0129083D01*
X0291527Y0129083D01*
X0294000Y0131556D01*
X0296473Y0129083D01*
X0301527Y0129083D01*
X0305100Y0132656D01*
X0305100Y0137710D01*
X0302202Y0140607D01*
X0304500Y0142905D01*
X0304500Y0144983D01*
X0299200Y0144983D01*
X0299200Y0145383D01*
X0304500Y0145383D01*
X0304500Y0147461D01*
X0303728Y0148233D01*
X0327084Y0148233D01*
X0327051Y0148219D01*
X0325462Y0146630D01*
X0324602Y0144555D01*
X0324602Y0135812D01*
X0325462Y0133736D01*
X0327051Y0132147D01*
X0329127Y0131287D01*
X0331373Y0131287D01*
X0333449Y0132147D01*
X0335038Y0133736D01*
X0335250Y0134247D01*
X0335462Y0133736D01*
X0337051Y0132147D01*
X0339127Y0131287D01*
X0341373Y0131287D01*
X0343449Y0132147D01*
X0345038Y0133736D01*
X0345250Y0134247D01*
X0345462Y0133736D01*
X0347051Y0132147D01*
X0349127Y0131287D01*
X0351373Y0131287D01*
X0353449Y0132147D01*
X0355038Y0133736D01*
X0355898Y0135812D01*
X0355898Y0144555D01*
X0355286Y0146033D02*
X0376790Y0146033D01*
X0378292Y0147632D02*
X0354037Y0147632D01*
X0347084Y0148233D02*
X0347051Y0148219D01*
X0345462Y0146630D01*
X0345250Y0146119D01*
X0345038Y0146630D01*
X0343449Y0148219D01*
X0343416Y0148233D01*
X0347084Y0148233D01*
X0346463Y0147632D02*
X0344037Y0147632D01*
X0337084Y0148233D02*
X0337051Y0148219D01*
X0335462Y0146630D01*
X0335250Y0146119D01*
X0335038Y0146630D01*
X0333449Y0148219D01*
X0333416Y0148233D01*
X0337084Y0148233D01*
X0336463Y0147632D02*
X0334037Y0147632D01*
X0326463Y0147632D02*
X0304329Y0147632D01*
X0304500Y0146033D02*
X0325214Y0146033D01*
X0324602Y0144435D02*
X0304500Y0144435D01*
X0304431Y0142836D02*
X0324602Y0142836D01*
X0324602Y0141238D02*
X0302833Y0141238D01*
X0303170Y0139639D02*
X0324602Y0139639D01*
X0324602Y0138041D02*
X0304769Y0138041D01*
X0305100Y0136442D02*
X0324602Y0136442D01*
X0325003Y0134844D02*
X0305100Y0134844D01*
X0305100Y0133245D02*
X0325952Y0133245D01*
X0328258Y0131647D02*
X0304090Y0131647D01*
X0302492Y0130048D02*
X0353363Y0130048D01*
X0352744Y0128450D02*
X0271390Y0128450D01*
X0271125Y0130048D02*
X0275508Y0130048D01*
X0273910Y0131647D02*
X0271438Y0131647D01*
X0271506Y0133245D02*
X0272900Y0133245D01*
X0272900Y0134844D02*
X0270972Y0134844D01*
X0269498Y0136442D02*
X0272900Y0136442D01*
X0273231Y0138041D02*
X0267008Y0138041D01*
X0268607Y0139639D02*
X0274830Y0139639D01*
X0274319Y0141238D02*
X0270205Y0141238D01*
X0271804Y0142836D02*
X0272900Y0142836D01*
X0265950Y0146033D02*
X0082948Y0146033D01*
X0080461Y0144435D02*
X0264351Y0144435D01*
X0262753Y0142836D02*
X0078089Y0142836D01*
X0076244Y0141238D02*
X0261154Y0141238D01*
X0259838Y0139639D02*
X0074399Y0139639D01*
X0072555Y0138041D02*
X0259550Y0138041D01*
X0259550Y0136442D02*
X0071148Y0136442D01*
X0069763Y0134844D02*
X0251215Y0134844D01*
X0254000Y0131433D02*
X0219625Y0131433D01*
X0193375Y0105183D01*
X0193375Y0082058D01*
X0190885Y0079568D01*
X0186500Y0079568D01*
X0191508Y0075699D02*
X0205867Y0075699D01*
X0205522Y0077297D02*
X0193140Y0077297D01*
X0194738Y0078896D02*
X0205522Y0078896D01*
X0205522Y0080494D02*
X0196191Y0080494D01*
X0196575Y0082093D02*
X0205522Y0082093D01*
X0205655Y0083691D02*
X0196575Y0083691D01*
X0196575Y0085290D02*
X0205522Y0085290D01*
X0205522Y0086888D02*
X0196575Y0086888D01*
X0196575Y0088487D02*
X0205522Y0088487D01*
X0205523Y0090085D02*
X0196575Y0090085D01*
X0196575Y0091684D02*
X0206227Y0091684D01*
X0206113Y0093282D02*
X0196575Y0093282D01*
X0196575Y0094881D02*
X0206113Y0094881D01*
X0206113Y0096479D02*
X0196575Y0096479D01*
X0196575Y0098078D02*
X0206295Y0098078D01*
X0207028Y0099677D02*
X0196575Y0099677D01*
X0196575Y0101275D02*
X0206713Y0101275D01*
X0206713Y0104472D02*
X0197189Y0104472D01*
X0196575Y0102874D02*
X0210494Y0102874D01*
X0210494Y0104472D02*
X0211256Y0104472D01*
X0211256Y0106071D02*
X0210494Y0106071D01*
X0206821Y0106071D02*
X0198788Y0106071D01*
X0200386Y0107669D02*
X0233836Y0107669D01*
X0235434Y0109268D02*
X0201985Y0109268D01*
X0203583Y0110866D02*
X0237697Y0110866D01*
X0238375Y0107683D02*
X0234000Y0103308D01*
X0234000Y0090808D01*
X0222750Y0079558D01*
X0210885Y0079558D01*
X0210875Y0079568D01*
X0210240Y0078933D01*
X0215883Y0075699D02*
X0268750Y0075699D01*
X0268750Y0077297D02*
X0225015Y0077297D01*
X0226613Y0078896D02*
X0268750Y0078896D01*
X0267407Y0080494D02*
X0228212Y0080494D01*
X0229810Y0082093D02*
X0265808Y0082093D01*
X0264210Y0083691D02*
X0231409Y0083691D01*
X0233007Y0085290D02*
X0262611Y0085290D01*
X0261013Y0086888D02*
X0234606Y0086888D01*
X0236204Y0088487D02*
X0259414Y0088487D01*
X0257816Y0090085D02*
X0237164Y0090085D01*
X0237200Y0091684D02*
X0245334Y0091684D01*
X0242970Y0093282D02*
X0237200Y0093282D01*
X0237200Y0094881D02*
X0241623Y0094881D01*
X0240960Y0096479D02*
X0237200Y0096479D01*
X0237200Y0098078D02*
X0240596Y0098078D01*
X0240596Y0099677D02*
X0237200Y0099677D01*
X0237200Y0101275D02*
X0240914Y0101275D01*
X0241576Y0102874D02*
X0238091Y0102874D01*
X0239689Y0104472D02*
X0242858Y0104472D01*
X0238375Y0107683D02*
X0251500Y0107683D01*
X0277125Y0082058D01*
X0277125Y0062058D01*
X0284625Y0054558D01*
X0379625Y0054558D01*
X0385250Y0060183D01*
X0380869Y0060327D02*
X0378300Y0057758D01*
X0326208Y0057758D01*
X0326500Y0058463D01*
X0326500Y0065653D01*
X0325739Y0067490D01*
X0324332Y0068897D01*
X0322495Y0069658D01*
X0320505Y0069658D01*
X0318668Y0068897D01*
X0317261Y0067490D01*
X0316500Y0065653D01*
X0316500Y0058463D01*
X0316792Y0057758D01*
X0315572Y0057758D01*
X0315578Y0057769D01*
X0315792Y0058428D01*
X0315900Y0059112D01*
X0315900Y0062058D01*
X0311500Y0062058D01*
X0311500Y0062058D01*
X0307100Y0062058D01*
X0307100Y0059112D01*
X0307208Y0058428D01*
X0307422Y0057769D01*
X0307428Y0057758D01*
X0306208Y0057758D01*
X0306500Y0058463D01*
X0306500Y0065653D01*
X0305739Y0067490D01*
X0304332Y0068897D01*
X0302495Y0069658D01*
X0300505Y0069658D01*
X0298668Y0068897D01*
X0297261Y0067490D01*
X0296500Y0065653D01*
X0296500Y0058463D01*
X0296792Y0057758D01*
X0285950Y0057758D01*
X0280325Y0063384D01*
X0280325Y0082006D01*
X0282931Y0082006D01*
X0285544Y0082706D01*
X0286231Y0083102D01*
X0288062Y0081271D01*
X0286587Y0079796D01*
X0286100Y0078620D01*
X0286100Y0067554D01*
X0285586Y0067040D01*
X0284919Y0065430D01*
X0284919Y0063687D01*
X0285586Y0062076D01*
X0286818Y0060844D01*
X0288429Y0060177D01*
X0290172Y0060177D01*
X0291782Y0060844D01*
X0293014Y0062076D01*
X0293681Y0063687D01*
X0293681Y0065430D01*
X0293014Y0067040D01*
X0292500Y0067554D01*
X0292500Y0076658D01*
X0294075Y0078233D01*
X0320887Y0078233D01*
X0322063Y0078720D01*
X0322963Y0079620D01*
X0322963Y0079620D01*
X0329700Y0086358D01*
X0330352Y0086358D01*
X0330352Y0085531D01*
X0330717Y0084649D01*
X0330769Y0084598D01*
X0330666Y0084495D01*
X0330301Y0083613D01*
X0330301Y0076753D01*
X0330666Y0075871D01*
X0330729Y0075808D01*
X0330666Y0075745D01*
X0330301Y0074863D01*
X0330301Y0068003D01*
X0330666Y0067121D01*
X0331305Y0066482D01*
X0330869Y0065430D01*
X0330869Y0063687D01*
X0331536Y0062076D01*
X0332768Y0060844D01*
X0334379Y0060177D01*
X0336121Y0060177D01*
X0337732Y0060844D01*
X0338964Y0062076D01*
X0339631Y0063687D01*
X0339631Y0065430D01*
X0339201Y0066468D01*
X0339525Y0066793D01*
X0339944Y0066680D01*
X0342261Y0066680D01*
X0342261Y0070953D01*
X0343220Y0070953D01*
X0343220Y0066680D01*
X0345536Y0066680D01*
X0345994Y0066803D01*
X0346404Y0067040D01*
X0346740Y0067375D01*
X0346977Y0067786D01*
X0347099Y0068243D01*
X0347099Y0070954D01*
X0343220Y0070954D01*
X0343220Y0071913D01*
X0347099Y0071913D01*
X0347099Y0074623D01*
X0346977Y0075081D01*
X0346818Y0075355D01*
X0347334Y0075871D01*
X0347699Y0076753D01*
X0347699Y0083609D01*
X0349419Y0083609D01*
X0349304Y0083561D01*
X0348629Y0082886D01*
X0348263Y0082004D01*
X0348263Y0077112D01*
X0348629Y0076230D01*
X0349304Y0075555D01*
X0350186Y0075190D01*
X0356653Y0075190D01*
X0356925Y0075302D01*
X0356925Y0073372D01*
X0357290Y0072490D01*
X0357965Y0071815D01*
X0358847Y0071449D01*
X0365314Y0071449D01*
X0366196Y0071815D01*
X0366871Y0072490D01*
X0367005Y0072812D01*
X0367688Y0073095D01*
X0368588Y0073995D01*
X0371713Y0077120D01*
X0372200Y0078297D01*
X0372200Y0091547D01*
X0373470Y0091021D01*
X0376617Y0091021D01*
X0377853Y0091533D01*
X0398602Y0091533D01*
X0398602Y0072317D01*
X0388957Y0062672D01*
X0387732Y0063897D01*
X0386121Y0064564D01*
X0384379Y0064564D01*
X0382768Y0063897D01*
X0381536Y0062665D01*
X0380869Y0061055D01*
X0380869Y0060327D01*
X0380255Y0059714D02*
X0326500Y0059714D01*
X0326500Y0061312D02*
X0332300Y0061312D01*
X0331190Y0062911D02*
X0326500Y0062911D01*
X0326500Y0064509D02*
X0330869Y0064509D01*
X0331150Y0066108D02*
X0326311Y0066108D01*
X0325523Y0067706D02*
X0330424Y0067706D01*
X0330301Y0069305D02*
X0323347Y0069305D01*
X0319653Y0069305D02*
X0303347Y0069305D01*
X0305523Y0067706D02*
X0308326Y0067706D01*
X0308144Y0067524D02*
X0307737Y0066964D01*
X0307422Y0066347D01*
X0307208Y0065688D01*
X0307100Y0065004D01*
X0307100Y0062058D01*
X0311500Y0062058D01*
X0311500Y0062058D01*
X0315900Y0062058D01*
X0315900Y0065004D01*
X0315792Y0065688D01*
X0315578Y0066347D01*
X0315263Y0066964D01*
X0314856Y0067524D01*
X0314366Y0068014D01*
X0313806Y0068421D01*
X0313189Y0068736D01*
X0312530Y0068950D01*
X0311846Y0069058D01*
X0311500Y0069058D01*
X0311500Y0062058D01*
X0311500Y0062058D01*
X0311500Y0069058D01*
X0311154Y0069058D01*
X0310470Y0068950D01*
X0309811Y0068736D01*
X0309194Y0068421D01*
X0308634Y0068014D01*
X0308144Y0067524D01*
X0307345Y0066108D02*
X0306311Y0066108D01*
X0306500Y0064509D02*
X0307100Y0064509D01*
X0307100Y0062911D02*
X0306500Y0062911D01*
X0306500Y0061312D02*
X0307100Y0061312D01*
X0307100Y0059714D02*
X0306500Y0059714D01*
X0306356Y0058115D02*
X0307310Y0058115D01*
X0315690Y0058115D02*
X0316644Y0058115D01*
X0316500Y0059714D02*
X0315900Y0059714D01*
X0315900Y0061312D02*
X0316500Y0061312D01*
X0316500Y0062911D02*
X0315900Y0062911D01*
X0315900Y0064509D02*
X0316500Y0064509D01*
X0316689Y0066108D02*
X0315655Y0066108D01*
X0314674Y0067706D02*
X0317477Y0067706D01*
X0311500Y0067706D02*
X0311500Y0067706D01*
X0311500Y0066108D02*
X0311500Y0066108D01*
X0311500Y0064509D02*
X0311500Y0064509D01*
X0311500Y0062911D02*
X0311500Y0062911D01*
X0299653Y0069305D02*
X0292500Y0069305D01*
X0292500Y0070903D02*
X0330301Y0070903D01*
X0330301Y0072502D02*
X0292500Y0072502D01*
X0292500Y0074100D02*
X0330301Y0074100D01*
X0330647Y0075699D02*
X0292500Y0075699D01*
X0293140Y0077297D02*
X0330301Y0077297D01*
X0330301Y0078896D02*
X0322238Y0078896D01*
X0323837Y0080494D02*
X0330301Y0080494D01*
X0330301Y0082093D02*
X0325435Y0082093D01*
X0327034Y0083691D02*
X0330333Y0083691D01*
X0330452Y0085290D02*
X0328632Y0085290D01*
X0328375Y0089558D02*
X0320250Y0081433D01*
X0292750Y0081433D01*
X0292438Y0081121D01*
X0292113Y0081746D01*
X0281579Y0092280D01*
X0291518Y0094881D02*
X0295083Y0094881D01*
X0294655Y0096479D02*
X0291017Y0096479D01*
X0291153Y0096245D02*
X0289800Y0098588D01*
X0287887Y0100501D01*
X0285579Y0101834D01*
X0285579Y0103346D01*
X0284970Y0104816D01*
X0280160Y0109625D01*
X0280160Y0111645D01*
X0280695Y0112180D01*
X0281060Y0113062D01*
X0281060Y0118683D01*
X0288190Y0118683D01*
X0288190Y0113062D01*
X0288555Y0112180D01*
X0289230Y0111505D01*
X0290112Y0111139D01*
X0296067Y0111139D01*
X0296949Y0111505D01*
X0297624Y0112180D01*
X0297729Y0112433D01*
X0301091Y0112433D01*
X0297972Y0109314D01*
X0295746Y0105459D01*
X0294594Y0101159D01*
X0294594Y0096707D01*
X0295746Y0092407D01*
X0297972Y0088552D01*
X0301119Y0085405D01*
X0302456Y0084633D01*
X0293751Y0084633D01*
X0290756Y0087627D01*
X0291153Y0088314D01*
X0291853Y0090927D01*
X0291853Y0093632D01*
X0291153Y0096245D01*
X0290094Y0098078D02*
X0294594Y0098078D01*
X0294594Y0099677D02*
X0288711Y0099677D01*
X0286546Y0101275D02*
X0294625Y0101275D01*
X0295053Y0102874D02*
X0285579Y0102874D01*
X0285112Y0104472D02*
X0295481Y0104472D01*
X0296099Y0106071D02*
X0283715Y0106071D01*
X0282117Y0107669D02*
X0297022Y0107669D01*
X0297945Y0109268D02*
X0280518Y0109268D01*
X0280160Y0110866D02*
X0299524Y0110866D01*
X0288437Y0112465D02*
X0280813Y0112465D01*
X0281060Y0114063D02*
X0288190Y0114063D01*
X0288190Y0115662D02*
X0281060Y0115662D01*
X0281060Y0117260D02*
X0288190Y0117260D01*
X0272160Y0110866D02*
X0252178Y0110866D01*
X0254213Y0109496D02*
X0254213Y0109496D01*
X0254441Y0109268D02*
X0272160Y0109268D01*
X0272160Y0107669D02*
X0256039Y0107669D01*
X0257638Y0106071D02*
X0272617Y0106071D01*
X0274000Y0104472D02*
X0259236Y0104472D01*
X0260835Y0102874D02*
X0275599Y0102874D01*
X0276611Y0101275D02*
X0262434Y0101275D01*
X0264032Y0099677D02*
X0274446Y0099677D01*
X0273063Y0098078D02*
X0265631Y0098078D01*
X0267229Y0096479D02*
X0272140Y0096479D01*
X0271639Y0094881D02*
X0268828Y0094881D01*
X0270426Y0093282D02*
X0271305Y0093282D01*
X0256217Y0091684D02*
X0251681Y0091684D01*
X0254046Y0093282D02*
X0254619Y0093282D01*
X0230800Y0093282D02*
X0226487Y0093282D01*
X0227834Y0094881D02*
X0230800Y0094881D01*
X0230800Y0096479D02*
X0228496Y0096479D01*
X0228861Y0098078D02*
X0230800Y0098078D01*
X0230800Y0099677D02*
X0228861Y0099677D01*
X0228542Y0101275D02*
X0230800Y0101275D01*
X0230800Y0102874D02*
X0227880Y0102874D01*
X0226599Y0104472D02*
X0231018Y0104472D01*
X0232237Y0106071D02*
X0224392Y0106071D01*
X0217506Y0106071D02*
X0214929Y0106071D01*
X0215037Y0104472D02*
X0215299Y0104472D01*
X0210875Y0094799D02*
X0210875Y0087048D01*
X0216228Y0086888D02*
X0225555Y0086888D01*
X0223956Y0085290D02*
X0216228Y0085290D01*
X0216095Y0083691D02*
X0222358Y0083691D01*
X0227153Y0088487D02*
X0216228Y0088487D01*
X0216227Y0090085D02*
X0228752Y0090085D01*
X0230350Y0091684D02*
X0224122Y0091684D01*
X0217775Y0091684D02*
X0215523Y0091684D01*
X0190175Y0099215D02*
X0189994Y0099291D01*
X0190175Y0099472D01*
X0190175Y0099215D01*
X0186500Y0094799D02*
X0186500Y0087048D01*
X0162125Y0087048D02*
X0162125Y0094799D01*
X0161744Y0104472D02*
X0162506Y0104472D01*
X0162506Y0106071D02*
X0161744Y0106071D01*
X0137750Y0094799D02*
X0137750Y0087048D01*
X0113375Y0087048D02*
X0113375Y0094799D01*
X0108613Y0093282D02*
X0107249Y0093282D01*
X0108727Y0091684D02*
X0103558Y0091684D01*
X0103402Y0091684D02*
X0101802Y0091684D01*
X0101647Y0091684D02*
X0093648Y0091684D01*
X0093762Y0093282D02*
X0097955Y0093282D01*
X0096499Y0094881D02*
X0093762Y0094881D01*
X0093762Y0096479D02*
X0095704Y0096479D01*
X0095340Y0098078D02*
X0093580Y0098078D01*
X0089000Y0094799D02*
X0089000Y0087048D01*
X0094353Y0086888D02*
X0108022Y0086888D01*
X0108022Y0085290D02*
X0094353Y0085290D01*
X0094220Y0083691D02*
X0108155Y0083691D01*
X0108022Y0082093D02*
X0094353Y0082093D01*
X0094353Y0080494D02*
X0108022Y0080494D01*
X0108022Y0078896D02*
X0094353Y0078896D01*
X0094353Y0077297D02*
X0108022Y0077297D01*
X0108367Y0075699D02*
X0094008Y0075699D01*
X0093358Y0074100D02*
X0110175Y0074100D01*
X0110504Y0072502D02*
X0094957Y0072502D01*
X0096555Y0070903D02*
X0111879Y0070903D01*
X0113478Y0069305D02*
X0098154Y0069305D01*
X0099752Y0067706D02*
X0115076Y0067706D01*
X0116675Y0066108D02*
X0101351Y0066108D01*
X0102949Y0064509D02*
X0118273Y0064509D01*
X0119872Y0062911D02*
X0104548Y0062911D01*
X0106146Y0061312D02*
X0121470Y0061312D01*
X0123069Y0059714D02*
X0107745Y0059714D01*
X0109343Y0058115D02*
X0124667Y0058115D01*
X0126266Y0056517D02*
X0110942Y0056517D01*
X0110250Y0052683D02*
X0257125Y0052683D01*
X0260508Y0055496D02*
X0260839Y0055826D01*
X0261506Y0057437D01*
X0261506Y0057527D01*
X0265692Y0053340D01*
X0264246Y0053939D01*
X0262504Y0053939D01*
X0261506Y0053526D01*
X0261506Y0053555D01*
X0260839Y0055165D01*
X0260508Y0055496D01*
X0260941Y0054918D02*
X0264114Y0054918D01*
X0262516Y0056517D02*
X0261125Y0056517D01*
X0257125Y0058308D02*
X0129000Y0058308D01*
X0113375Y0073933D01*
X0113375Y0079568D01*
X0108022Y0088487D02*
X0094353Y0088487D01*
X0094352Y0090085D02*
X0108023Y0090085D01*
X0103402Y0093282D02*
X0101802Y0093282D01*
X0101802Y0094881D02*
X0103402Y0094881D01*
X0103402Y0096479D02*
X0101802Y0096479D01*
X0101802Y0098078D02*
X0103402Y0098078D01*
X0112994Y0104472D02*
X0113756Y0104472D01*
X0113756Y0106071D02*
X0112994Y0106071D01*
X0117429Y0106071D02*
X0133696Y0106071D01*
X0089381Y0106071D02*
X0088619Y0106071D01*
X0088619Y0104472D02*
X0089381Y0104472D01*
X0084838Y0101275D02*
X0081986Y0101275D01*
X0075843Y0098078D02*
X0074243Y0098078D01*
X0074243Y0096479D02*
X0075843Y0096479D01*
X0075843Y0094881D02*
X0074243Y0094881D01*
X0074243Y0093282D02*
X0075843Y0093282D01*
X0070396Y0093282D02*
X0069387Y0093282D01*
X0064625Y0094799D02*
X0064625Y0087048D01*
X0059272Y0086888D02*
X0058990Y0086888D01*
X0059272Y0088487D02*
X0058590Y0088487D01*
X0058189Y0090085D02*
X0059273Y0090085D01*
X0059977Y0091684D02*
X0057789Y0091684D01*
X0057496Y0093282D02*
X0059863Y0093282D01*
X0059863Y0094881D02*
X0057259Y0094881D01*
X0057022Y0096479D02*
X0059863Y0096479D01*
X0060045Y0098078D02*
X0056788Y0098078D01*
X0056709Y0099677D02*
X0060778Y0099677D01*
X0060463Y0101275D02*
X0056631Y0101275D01*
X0056552Y0102874D02*
X0064244Y0102874D01*
X0065006Y0102874D02*
X0068875Y0102874D01*
X0068787Y0103448D02*
X0068787Y0105666D01*
X0068665Y0106124D01*
X0068428Y0106534D01*
X0068092Y0106869D01*
X0067682Y0107106D01*
X0067224Y0107229D01*
X0065006Y0107229D01*
X0065006Y0103448D01*
X0068787Y0103448D01*
X0068787Y0104472D02*
X0070251Y0104472D01*
X0068679Y0106071D02*
X0073430Y0106071D01*
X0065006Y0106071D02*
X0064244Y0106071D01*
X0064244Y0104472D02*
X0065006Y0104472D01*
X0060463Y0104472D02*
X0056671Y0104472D01*
X0056901Y0106071D02*
X0060571Y0106071D01*
X0057130Y0107669D02*
X0191336Y0107669D01*
X0192934Y0109268D02*
X0057360Y0109268D01*
X0057620Y0110866D02*
X0194533Y0110866D01*
X0196131Y0112465D02*
X0058089Y0112465D01*
X0058559Y0114063D02*
X0197730Y0114063D01*
X0199328Y0115662D02*
X0059028Y0115662D01*
X0059497Y0117260D02*
X0200927Y0117260D01*
X0202525Y0118859D02*
X0060070Y0118859D01*
X0060800Y0120457D02*
X0204124Y0120457D01*
X0205722Y0122056D02*
X0061530Y0122056D01*
X0062260Y0123654D02*
X0207321Y0123654D01*
X0208919Y0125253D02*
X0062990Y0125253D01*
X0063993Y0126851D02*
X0210518Y0126851D01*
X0212116Y0128450D02*
X0065020Y0128450D01*
X0066047Y0130048D02*
X0213715Y0130048D01*
X0215313Y0131647D02*
X0067075Y0131647D01*
X0068378Y0133245D02*
X0216912Y0133245D01*
X0219569Y0126851D02*
X0259550Y0126851D01*
X0259550Y0125253D02*
X0217970Y0125253D01*
X0216372Y0123654D02*
X0259550Y0123654D01*
X0259550Y0122056D02*
X0214773Y0122056D01*
X0213175Y0120457D02*
X0260450Y0120457D01*
X0262049Y0118859D02*
X0211576Y0118859D01*
X0209978Y0117260D02*
X0263647Y0117260D01*
X0265244Y0115662D02*
X0208379Y0115662D01*
X0206781Y0114063D02*
X0265606Y0114063D01*
X0266773Y0112465D02*
X0205182Y0112465D01*
X0257212Y0128450D02*
X0259550Y0128450D01*
X0259550Y0130048D02*
X0258168Y0130048D01*
X0258381Y0131647D02*
X0259550Y0131647D01*
X0259550Y0133245D02*
X0257991Y0133245D01*
X0256785Y0134844D02*
X0259550Y0134844D01*
X0262750Y0138308D02*
X0275875Y0151433D01*
X0474000Y0151433D01*
X0478381Y0150829D02*
X0525372Y0150829D01*
X0529747Y0149230D02*
X0483735Y0149230D01*
X0485333Y0147632D02*
X0533127Y0147632D01*
X0536144Y0146033D02*
X0486932Y0146033D01*
X0488530Y0144435D02*
X0538811Y0144435D01*
X0541162Y0142836D02*
X0490129Y0142836D01*
X0491727Y0141238D02*
X0543318Y0141238D01*
X0545308Y0139639D02*
X0493326Y0139639D01*
X0494924Y0138041D02*
X0547071Y0138041D01*
X0548835Y0136442D02*
X0496523Y0136442D01*
X0498121Y0134844D02*
X0550300Y0134844D01*
X0551749Y0133245D02*
X0499454Y0133245D01*
X0499875Y0131647D02*
X0553140Y0131647D01*
X0554326Y0130048D02*
X0499875Y0130048D01*
X0499875Y0128450D02*
X0555511Y0128450D01*
X0556638Y0126851D02*
X0499875Y0126851D01*
X0499875Y0125253D02*
X0557596Y0125253D01*
X0558554Y0123654D02*
X0499875Y0123654D01*
X0499875Y0122056D02*
X0559492Y0122056D01*
X0560248Y0120457D02*
X0499875Y0120457D01*
X0500981Y0118859D02*
X0561004Y0118859D01*
X0561760Y0117260D02*
X0502580Y0117260D01*
X0504178Y0115662D02*
X0562374Y0115662D01*
X0562946Y0114063D02*
X0505624Y0114063D01*
X0506125Y0112465D02*
X0563518Y0112465D01*
X0564038Y0110866D02*
X0506125Y0110866D01*
X0506125Y0109268D02*
X0564438Y0109268D01*
X0564838Y0107669D02*
X0506125Y0107669D01*
X0506125Y0106071D02*
X0517506Y0106071D01*
X0515299Y0104472D02*
X0507243Y0104472D01*
X0509453Y0094881D02*
X0514064Y0094881D01*
X0515410Y0093282D02*
X0511051Y0093282D01*
X0512101Y0091684D02*
X0517775Y0091684D01*
X0512200Y0090085D02*
X0565853Y0090085D01*
X0565624Y0088487D02*
X0512200Y0088487D01*
X0512200Y0086888D02*
X0565347Y0086888D01*
X0564878Y0085290D02*
X0512200Y0085290D01*
X0512200Y0083691D02*
X0564408Y0083691D01*
X0563939Y0082093D02*
X0512200Y0082093D01*
X0512200Y0080494D02*
X0563470Y0080494D01*
X0562879Y0078896D02*
X0512200Y0078896D01*
X0512200Y0077297D02*
X0562149Y0077297D01*
X0561419Y0075699D02*
X0513011Y0075699D01*
X0513381Y0074100D02*
X0560689Y0074100D01*
X0559959Y0072502D02*
X0513149Y0072502D01*
X0512166Y0070903D02*
X0558936Y0070903D01*
X0557908Y0069305D02*
X0496575Y0069305D01*
X0496575Y0067706D02*
X0556881Y0067706D01*
X0555854Y0066108D02*
X0496575Y0066108D01*
X0496575Y0064509D02*
X0554526Y0064509D01*
X0553140Y0062911D02*
X0496156Y0062911D01*
X0494655Y0061312D02*
X0551755Y0061312D01*
X0550316Y0059714D02*
X0493056Y0059714D01*
X0491458Y0058115D02*
X0548472Y0058115D01*
X0546627Y0056517D02*
X0489859Y0056517D01*
X0488261Y0054918D02*
X0544782Y0054918D01*
X0542365Y0053320D02*
X0486662Y0053320D01*
X0484888Y0051721D02*
X0539878Y0051721D01*
X0537161Y0050123D02*
X0397840Y0050123D01*
X0396242Y0048524D02*
X0533660Y0048524D01*
X0529810Y0046926D02*
X0394643Y0046926D01*
X0393045Y0045327D02*
X0524366Y0045327D01*
X0490175Y0065884D02*
X0482050Y0057758D01*
X0427005Y0057758D01*
X0427131Y0058062D01*
X0427131Y0059805D01*
X0427005Y0060108D01*
X0442137Y0060108D01*
X0443313Y0060595D01*
X0444213Y0061495D01*
X0460175Y0077458D01*
X0460175Y0076929D01*
X0459661Y0076415D01*
X0458994Y0074805D01*
X0458994Y0073062D01*
X0459661Y0071451D01*
X0460893Y0070219D01*
X0462504Y0069552D01*
X0464246Y0069552D01*
X0464725Y0069750D01*
X0465037Y0068995D01*
X0466287Y0067745D01*
X0467187Y0066845D01*
X0468363Y0066358D01*
X0482762Y0066358D01*
X0483938Y0066845D01*
X0485188Y0068095D01*
X0486088Y0068995D01*
X0486575Y0070172D01*
X0486575Y0070195D01*
X0488129Y0069552D01*
X0489871Y0069552D01*
X0490175Y0069678D01*
X0490175Y0065884D01*
X0490175Y0066108D02*
X0448825Y0066108D01*
X0450424Y0067706D02*
X0466326Y0067706D01*
X0466287Y0067745D02*
X0466287Y0067745D01*
X0464909Y0069305D02*
X0452022Y0069305D01*
X0453621Y0070903D02*
X0460209Y0070903D01*
X0459226Y0072502D02*
X0455219Y0072502D01*
X0456818Y0074100D02*
X0458994Y0074100D01*
X0459364Y0075699D02*
X0458416Y0075699D01*
X0460015Y0077297D02*
X0460175Y0077297D01*
X0463375Y0077058D02*
X0463375Y0073933D01*
X0463375Y0077058D02*
X0466500Y0080183D01*
X0466500Y0089233D01*
X0461500Y0089233D02*
X0461500Y0083308D01*
X0441500Y0063308D01*
X0414625Y0063308D01*
X0417621Y0066508D02*
X0417107Y0067022D01*
X0415496Y0067689D01*
X0413754Y0067689D01*
X0412143Y0067022D01*
X0410911Y0065790D01*
X0410244Y0064180D01*
X0410244Y0062437D01*
X0410370Y0062133D01*
X0399732Y0062133D01*
X0404868Y0067269D01*
X0404868Y0067269D01*
X0405993Y0068395D01*
X0406602Y0069865D01*
X0406602Y0092026D01*
X0407084Y0092226D01*
X0409310Y0094451D01*
X0410514Y0097359D01*
X0410514Y0098146D01*
X0410609Y0097917D01*
X0413609Y0094917D01*
X0415079Y0094308D01*
X0439843Y0094308D01*
X0442349Y0091802D01*
X0442584Y0091704D01*
X0442763Y0091274D01*
X0443438Y0090599D01*
X0443834Y0090435D01*
X0444359Y0089167D01*
X0445484Y0088042D01*
X0445484Y0088042D01*
X0446559Y0086967D01*
X0447684Y0085842D01*
X0449154Y0085233D01*
X0452581Y0085233D01*
X0452593Y0085228D01*
X0453000Y0085231D01*
X0453000Y0084856D01*
X0453365Y0083974D01*
X0454041Y0083298D01*
X0454923Y0082933D01*
X0456600Y0082933D01*
X0440175Y0066508D01*
X0417621Y0066508D01*
X0411229Y0066108D02*
X0403707Y0066108D01*
X0405305Y0067706D02*
X0441373Y0067706D01*
X0442971Y0069305D02*
X0406370Y0069305D01*
X0406602Y0070903D02*
X0444570Y0070903D01*
X0446168Y0072502D02*
X0406602Y0072502D01*
X0406602Y0074100D02*
X0447767Y0074100D01*
X0449365Y0075699D02*
X0406602Y0075699D01*
X0406602Y0077297D02*
X0450964Y0077297D01*
X0452562Y0078896D02*
X0406602Y0078896D01*
X0406602Y0080494D02*
X0454161Y0080494D01*
X0455759Y0082093D02*
X0406602Y0082093D01*
X0406602Y0083691D02*
X0453648Y0083691D01*
X0449017Y0085290D02*
X0406602Y0085290D01*
X0406602Y0086888D02*
X0446638Y0086888D01*
X0446559Y0086967D02*
X0446559Y0086967D01*
X0445039Y0088487D02*
X0406602Y0088487D01*
X0406602Y0090085D02*
X0443979Y0090085D01*
X0442593Y0091684D02*
X0406602Y0091684D01*
X0408141Y0093282D02*
X0440869Y0093282D01*
X0453103Y0094881D02*
X0453754Y0094881D01*
X0453103Y0096479D02*
X0483803Y0096479D01*
X0482205Y0098078D02*
X0453103Y0098078D01*
X0452449Y0099677D02*
X0480606Y0099677D01*
X0479008Y0101275D02*
X0452503Y0101275D01*
X0454295Y0103293D02*
X0454705Y0103056D01*
X0455163Y0102933D01*
X0456500Y0102933D01*
X0456500Y0108633D01*
X0456500Y0108633D01*
X0453600Y0108633D01*
X0453600Y0104496D01*
X0453723Y0104038D01*
X0453960Y0103628D01*
X0454295Y0103293D01*
X0453606Y0104472D02*
X0452503Y0104472D01*
X0452297Y0106071D02*
X0453600Y0106071D01*
X0453600Y0107669D02*
X0438511Y0107669D01*
X0436913Y0106071D02*
X0443203Y0106071D01*
X0443120Y0105927D02*
X0442997Y0105469D01*
X0442997Y0103153D01*
X0447270Y0103153D01*
X0447270Y0107032D01*
X0444560Y0107032D01*
X0444102Y0106910D01*
X0443692Y0106673D01*
X0443357Y0106337D01*
X0443120Y0105927D01*
X0442997Y0104472D02*
X0418000Y0104472D01*
X0418000Y0102874D02*
X0447270Y0102874D01*
X0448230Y0102874D02*
X0458865Y0102874D01*
X0456500Y0104472D02*
X0456500Y0104472D01*
X0456500Y0106071D02*
X0456500Y0106071D01*
X0456500Y0107669D02*
X0456500Y0107669D01*
X0456500Y0108633D02*
X0456500Y0108633D01*
X0453600Y0108633D01*
X0453600Y0112770D01*
X0453723Y0113228D01*
X0453960Y0113638D01*
X0454295Y0113973D01*
X0454705Y0114210D01*
X0455163Y0114333D01*
X0456500Y0114333D01*
X0456500Y0108633D01*
X0456500Y0108633D01*
X0456500Y0109268D02*
X0456500Y0109268D01*
X0456500Y0110866D02*
X0456500Y0110866D01*
X0456500Y0112465D02*
X0456500Y0112465D01*
X0456500Y0114063D02*
X0456500Y0114063D01*
X0454450Y0114063D02*
X0441575Y0114063D01*
X0441575Y0112465D02*
X0453600Y0112465D01*
X0453600Y0110866D02*
X0441345Y0110866D01*
X0440110Y0109268D02*
X0453600Y0109268D01*
X0448230Y0106071D02*
X0447270Y0106071D01*
X0447270Y0104472D02*
X0448230Y0104472D01*
X0434256Y0112465D02*
X0434132Y0112465D01*
X0434762Y0114063D02*
X0435175Y0114063D01*
X0430390Y0117260D02*
X0430021Y0117260D01*
X0430021Y0118859D02*
X0430390Y0118859D01*
X0421544Y0119548D02*
X0421544Y0126389D01*
X0418375Y0129558D01*
X0400250Y0129558D01*
X0397115Y0126423D01*
X0397115Y0116433D01*
X0397125Y0116443D01*
X0405250Y0116443D01*
X0413520Y0119403D02*
X0413520Y0123282D01*
X0410810Y0123282D01*
X0410352Y0123160D01*
X0410003Y0122958D01*
X0410003Y0123444D01*
X0405730Y0123444D01*
X0405730Y0124403D01*
X0410003Y0124403D01*
X0410003Y0126358D01*
X0417050Y0126358D01*
X0418344Y0125063D01*
X0418344Y0123917D01*
X0418311Y0123917D01*
X0417429Y0123551D01*
X0417160Y0123282D01*
X0414480Y0123282D01*
X0414480Y0119403D01*
X0413520Y0119403D01*
X0413520Y0120457D02*
X0414480Y0120457D01*
X0414480Y0122056D02*
X0413520Y0122056D01*
X0417677Y0123654D02*
X0405730Y0123654D01*
X0410003Y0125253D02*
X0418155Y0125253D01*
X0438375Y0132683D02*
X0460250Y0132683D01*
X0466500Y0126433D01*
X0467119Y0130340D02*
X0462975Y0134483D01*
X0468979Y0134483D01*
X0467786Y0133290D01*
X0467119Y0131680D01*
X0467119Y0130340D01*
X0467119Y0131647D02*
X0465812Y0131647D01*
X0464213Y0133245D02*
X0467767Y0133245D01*
X0471500Y0130808D02*
X0474625Y0130808D01*
X0479700Y0126851D02*
X0480208Y0126851D01*
X0484700Y0120177D02*
X0484871Y0120177D01*
X0485175Y0120303D01*
X0485175Y0115172D01*
X0485274Y0114933D01*
X0484923Y0114933D01*
X0484700Y0114841D01*
X0484700Y0120177D01*
X0484700Y0118859D02*
X0485175Y0118859D01*
X0485175Y0117260D02*
X0484700Y0117260D01*
X0484700Y0115662D02*
X0485175Y0115662D01*
X0486500Y0108633D02*
X0486500Y0103308D01*
X0497750Y0092058D01*
X0497750Y0073933D01*
X0490175Y0078188D02*
X0489871Y0078314D01*
X0489700Y0078314D01*
X0489700Y0084131D01*
X0490000Y0084856D01*
X0490000Y0090283D01*
X0490175Y0090108D01*
X0490175Y0078188D01*
X0490175Y0078896D02*
X0489700Y0078896D01*
X0489700Y0080494D02*
X0490175Y0080494D01*
X0490175Y0082093D02*
X0489700Y0082093D01*
X0489700Y0083691D02*
X0490175Y0083691D01*
X0490175Y0085290D02*
X0490000Y0085290D01*
X0490000Y0086888D02*
X0490175Y0086888D01*
X0490175Y0088487D02*
X0490000Y0088487D01*
X0490000Y0090085D02*
X0490175Y0090085D01*
X0486500Y0089233D02*
X0486500Y0076433D01*
X0489000Y0073933D01*
X0490175Y0069305D02*
X0486216Y0069305D01*
X0484799Y0067706D02*
X0490175Y0067706D01*
X0488801Y0064509D02*
X0447227Y0064509D01*
X0445628Y0062911D02*
X0487202Y0062911D01*
X0485604Y0061312D02*
X0444030Y0061312D01*
X0427131Y0059714D02*
X0484005Y0059714D01*
X0482407Y0058115D02*
X0427131Y0058115D01*
X0422750Y0058933D02*
X0397125Y0058933D01*
X0385250Y0047058D01*
X0280875Y0047058D01*
X0260875Y0067058D01*
X0257125Y0067058D01*
X0261506Y0070903D02*
X0268750Y0070903D01*
X0268750Y0069305D02*
X0263154Y0069305D01*
X0264752Y0067706D02*
X0268750Y0067706D01*
X0268750Y0066108D02*
X0266351Y0066108D01*
X0267949Y0064509D02*
X0268750Y0064509D01*
X0280325Y0064509D02*
X0284919Y0064509D01*
X0285200Y0066108D02*
X0280325Y0066108D01*
X0280325Y0067706D02*
X0286100Y0067706D01*
X0286100Y0069305D02*
X0280325Y0069305D01*
X0280325Y0070903D02*
X0286100Y0070903D01*
X0286100Y0072502D02*
X0280325Y0072502D01*
X0280325Y0074100D02*
X0286100Y0074100D01*
X0286100Y0075699D02*
X0280325Y0075699D01*
X0280325Y0077297D02*
X0286100Y0077297D01*
X0286215Y0078896D02*
X0280325Y0078896D01*
X0280325Y0080494D02*
X0287286Y0080494D01*
X0287240Y0082093D02*
X0283257Y0082093D01*
X0289300Y0077983D02*
X0292438Y0081121D01*
X0289300Y0077983D02*
X0289300Y0064558D01*
X0285240Y0062911D02*
X0280798Y0062911D01*
X0282396Y0061312D02*
X0286350Y0061312D01*
X0283995Y0059714D02*
X0296500Y0059714D01*
X0296500Y0061312D02*
X0292250Y0061312D01*
X0293360Y0062911D02*
X0296500Y0062911D01*
X0296500Y0064509D02*
X0293681Y0064509D01*
X0293400Y0066108D02*
X0296689Y0066108D01*
X0297477Y0067706D02*
X0292500Y0067706D01*
X0296644Y0058115D02*
X0285593Y0058115D01*
X0275100Y0043933D02*
X0267157Y0051875D01*
X0267756Y0050430D01*
X0267756Y0048687D01*
X0267089Y0047076D01*
X0265857Y0045844D01*
X0264246Y0045177D01*
X0262928Y0045177D01*
X0262762Y0045108D01*
X0104706Y0045108D01*
X0104795Y0045086D01*
X0110619Y0044222D01*
X0116500Y0043933D01*
X0275100Y0043933D01*
X0273705Y0045327D02*
X0264609Y0045327D01*
X0266938Y0046926D02*
X0272107Y0046926D01*
X0270508Y0048524D02*
X0267689Y0048524D01*
X0267756Y0050123D02*
X0268910Y0050123D01*
X0267311Y0051721D02*
X0267221Y0051721D01*
X0263375Y0049558D02*
X0262125Y0048308D01*
X0090250Y0048308D01*
X0091362Y0051721D02*
X0106686Y0051721D01*
X0105088Y0053320D02*
X0089764Y0053320D01*
X0088165Y0054918D02*
X0103489Y0054918D01*
X0101891Y0056517D02*
X0086567Y0056517D01*
X0084968Y0058115D02*
X0100292Y0058115D01*
X0098694Y0059714D02*
X0083370Y0059714D01*
X0081771Y0061312D02*
X0097095Y0061312D01*
X0095497Y0062911D02*
X0080173Y0062911D01*
X0078574Y0064509D02*
X0093898Y0064509D01*
X0092300Y0066108D02*
X0076976Y0066108D01*
X0075377Y0067706D02*
X0090701Y0067706D01*
X0089103Y0069305D02*
X0073779Y0069305D01*
X0072180Y0070903D02*
X0087504Y0070903D01*
X0086129Y0072502D02*
X0070582Y0072502D01*
X0068983Y0074100D02*
X0085800Y0074100D01*
X0083992Y0075699D02*
X0069633Y0075699D01*
X0069978Y0077297D02*
X0083647Y0077297D01*
X0089000Y0079568D02*
X0089000Y0073933D01*
X0110250Y0052683D01*
X0259116Y0074100D02*
X0268750Y0074100D01*
X0268750Y0072502D02*
X0260907Y0072502D01*
X0291495Y0086888D02*
X0299636Y0086888D01*
X0298037Y0088487D02*
X0291199Y0088487D01*
X0291627Y0090085D02*
X0297086Y0090085D01*
X0296164Y0091684D02*
X0291853Y0091684D01*
X0291853Y0093282D02*
X0295511Y0093282D01*
X0293094Y0085290D02*
X0301318Y0085290D01*
X0327299Y0092576D02*
X0328406Y0096707D01*
X0328406Y0101159D01*
X0327254Y0105459D01*
X0325028Y0109314D01*
X0321909Y0112433D01*
X0333738Y0112433D01*
X0333200Y0111895D01*
X0331847Y0109552D01*
X0331147Y0106939D01*
X0331147Y0104234D01*
X0331847Y0101621D01*
X0333200Y0099278D01*
X0335113Y0097365D01*
X0337456Y0096013D01*
X0338754Y0095665D01*
X0338688Y0095507D01*
X0332275Y0095507D01*
X0331392Y0095142D01*
X0330717Y0094467D01*
X0330352Y0093585D01*
X0330352Y0092758D01*
X0327738Y0092758D01*
X0327299Y0092576D01*
X0327489Y0093282D02*
X0330352Y0093282D01*
X0331132Y0094881D02*
X0327917Y0094881D01*
X0328345Y0096479D02*
X0336647Y0096479D01*
X0334400Y0098078D02*
X0328406Y0098078D01*
X0328406Y0099677D02*
X0332970Y0099677D01*
X0332047Y0101275D02*
X0328375Y0101275D01*
X0327947Y0102874D02*
X0331512Y0102874D01*
X0331147Y0104472D02*
X0327519Y0104472D01*
X0326901Y0106071D02*
X0331147Y0106071D01*
X0331343Y0107669D02*
X0325978Y0107669D01*
X0325055Y0109268D02*
X0331771Y0109268D01*
X0332606Y0110866D02*
X0323476Y0110866D01*
X0341500Y0093933D02*
X0342750Y0095183D01*
X0347750Y0095183D01*
X0351500Y0098933D01*
X0351500Y0105808D01*
X0352125Y0106433D01*
X0355250Y0106433D01*
X0357125Y0108308D01*
X0357125Y0122683D01*
X0353925Y0118683D02*
X0352407Y0118683D01*
X0353687Y0117403D01*
X0353925Y0117305D01*
X0353925Y0118683D01*
X0364000Y0117673D02*
X0363990Y0122048D01*
X0365875Y0123933D01*
X0367750Y0123933D01*
X0352744Y0126851D02*
X0272989Y0126851D01*
X0262750Y0122683D02*
X0262750Y0138308D01*
X0267548Y0147632D02*
X0085595Y0147632D01*
X0089095Y0149230D02*
X0269147Y0149230D01*
X0270745Y0150829D02*
X0092810Y0150829D01*
X0098254Y0152427D02*
X0272344Y0152427D01*
X0283681Y0141238D02*
X0284319Y0141238D01*
X0284000Y0141556D02*
X0285373Y0140183D01*
X0284000Y0138810D01*
X0282627Y0140183D01*
X0284000Y0141556D01*
X0283170Y0139639D02*
X0284830Y0139639D01*
X0292627Y0140183D02*
X0294424Y0141981D01*
X0295798Y0140607D01*
X0294000Y0138810D01*
X0292627Y0140183D01*
X0293170Y0139639D02*
X0294830Y0139639D01*
X0295167Y0141238D02*
X0293681Y0141238D01*
X0292492Y0130048D02*
X0295508Y0130048D01*
X0285508Y0130048D02*
X0282492Y0130048D01*
X0269625Y0115808D02*
X0262750Y0122683D01*
X0328375Y0089558D02*
X0335902Y0089558D01*
X0341500Y0085183D02*
X0342740Y0083943D01*
X0342740Y0080183D01*
X0347699Y0080494D02*
X0348263Y0080494D01*
X0348263Y0078896D02*
X0347699Y0078896D01*
X0347699Y0077297D02*
X0348263Y0077297D01*
X0349160Y0075699D02*
X0347162Y0075699D01*
X0347099Y0074100D02*
X0356925Y0074100D01*
X0357285Y0072502D02*
X0347099Y0072502D01*
X0347099Y0070903D02*
X0397188Y0070903D01*
X0398602Y0072502D02*
X0366876Y0072502D01*
X0368693Y0074100D02*
X0398602Y0074100D01*
X0398602Y0075699D02*
X0370291Y0075699D01*
X0371786Y0077297D02*
X0398602Y0077297D01*
X0398602Y0078896D02*
X0372200Y0078896D01*
X0372200Y0080494D02*
X0398602Y0080494D01*
X0398602Y0082093D02*
X0372200Y0082093D01*
X0372200Y0083691D02*
X0398602Y0083691D01*
X0398602Y0085290D02*
X0372200Y0085290D01*
X0372200Y0086888D02*
X0398602Y0086888D01*
X0398602Y0088487D02*
X0372200Y0088487D01*
X0372200Y0090085D02*
X0398602Y0090085D01*
X0409488Y0094881D02*
X0413696Y0094881D01*
X0412047Y0096479D02*
X0410150Y0096479D01*
X0410514Y0098078D02*
X0410542Y0098078D01*
X0422135Y0098943D02*
X0422750Y0098308D01*
X0419837Y0106071D02*
X0418000Y0106071D01*
X0393915Y0121718D02*
X0393375Y0121494D01*
X0392835Y0121718D01*
X0392835Y0125117D01*
X0393915Y0126198D01*
X0393915Y0121718D01*
X0393915Y0122056D02*
X0392835Y0122056D01*
X0392835Y0123654D02*
X0393915Y0123654D01*
X0393915Y0125253D02*
X0392970Y0125253D01*
X0390313Y0131647D02*
X0386652Y0131647D01*
X0388883Y0133245D02*
X0391912Y0133245D01*
X0375924Y0139639D02*
X0355898Y0139639D01*
X0355898Y0138041D02*
X0361955Y0138041D01*
X0360227Y0136442D02*
X0355898Y0136442D01*
X0355497Y0134844D02*
X0358629Y0134844D01*
X0357030Y0133245D02*
X0354548Y0133245D01*
X0355246Y0131647D02*
X0352242Y0131647D01*
X0348258Y0131647D02*
X0342242Y0131647D01*
X0344548Y0133245D02*
X0345952Y0133245D01*
X0338258Y0131647D02*
X0332242Y0131647D01*
X0334548Y0133245D02*
X0335952Y0133245D01*
X0369353Y0111559D02*
X0369385Y0111527D01*
X0369385Y0110628D01*
X0369994Y0109157D01*
X0372484Y0106667D01*
X0372647Y0106504D01*
X0370562Y0105640D01*
X0368949Y0104028D01*
X0368949Y0104863D01*
X0368584Y0105745D01*
X0368521Y0105808D01*
X0368987Y0106274D01*
X0369353Y0107156D01*
X0369353Y0111559D01*
X0369353Y0110866D02*
X0369385Y0110866D01*
X0369353Y0109268D02*
X0369948Y0109268D01*
X0369353Y0107669D02*
X0371482Y0107669D01*
X0371600Y0106071D02*
X0368784Y0106071D01*
X0368949Y0104472D02*
X0369393Y0104472D01*
X0364000Y0101443D02*
X0364000Y0110193D01*
X0363990Y0101433D02*
X0363990Y0097068D01*
X0369000Y0092058D01*
X0369000Y0078933D01*
X0365875Y0075808D01*
X0362091Y0075808D01*
X0362081Y0075818D01*
X0361490Y0075818D01*
X0353419Y0079558D02*
X0353419Y0087639D01*
X0351500Y0089558D01*
X0347098Y0089558D01*
X0352648Y0092546D02*
X0352648Y0093585D01*
X0352283Y0094467D01*
X0351921Y0094829D01*
X0353313Y0096220D01*
X0353773Y0096680D01*
X0356030Y0096680D01*
X0356030Y0100953D01*
X0356989Y0100953D01*
X0356989Y0096680D01*
X0359306Y0096680D01*
X0359725Y0096793D01*
X0360072Y0096446D01*
X0360932Y0096089D01*
X0361277Y0095255D01*
X0362177Y0094355D01*
X0365800Y0090733D01*
X0365800Y0086789D01*
X0365531Y0086944D01*
X0365074Y0087067D01*
X0362265Y0087067D01*
X0362265Y0083483D01*
X0361896Y0083483D01*
X0361896Y0087067D01*
X0359088Y0087067D01*
X0358630Y0086944D01*
X0358220Y0086707D01*
X0357884Y0086372D01*
X0357647Y0085962D01*
X0357525Y0085504D01*
X0357525Y0083565D01*
X0356653Y0083927D01*
X0356619Y0083927D01*
X0356619Y0088275D01*
X0356132Y0089451D01*
X0355232Y0090352D01*
X0354213Y0091371D01*
X0353313Y0092271D01*
X0352648Y0092546D01*
X0352648Y0093282D02*
X0363250Y0093282D01*
X0364849Y0091684D02*
X0353900Y0091684D01*
X0355498Y0090085D02*
X0365800Y0090085D01*
X0365800Y0088487D02*
X0356532Y0088487D01*
X0356619Y0086888D02*
X0358534Y0086888D01*
X0357525Y0085290D02*
X0356619Y0085290D01*
X0357220Y0083691D02*
X0357525Y0083691D01*
X0361896Y0083691D02*
X0362265Y0083691D01*
X0362265Y0085290D02*
X0361896Y0085290D01*
X0361896Y0086888D02*
X0362265Y0086888D01*
X0365628Y0086888D02*
X0365800Y0086888D01*
X0361652Y0094881D02*
X0351973Y0094881D01*
X0353313Y0096220D02*
X0353313Y0096220D01*
X0353572Y0096479D02*
X0360038Y0096479D01*
X0356989Y0098078D02*
X0356030Y0098078D01*
X0356030Y0099677D02*
X0356989Y0099677D01*
X0341500Y0093933D02*
X0341500Y0085183D01*
X0347699Y0082093D02*
X0348300Y0082093D01*
X0335260Y0080183D02*
X0335260Y0071433D01*
X0335260Y0070193D01*
X0335250Y0064558D01*
X0339310Y0062911D02*
X0381782Y0062911D01*
X0380976Y0061312D02*
X0338200Y0061312D01*
X0339631Y0064509D02*
X0384246Y0064509D01*
X0386254Y0064509D02*
X0390794Y0064509D01*
X0389196Y0062911D02*
X0388718Y0062911D01*
X0392393Y0066108D02*
X0339350Y0066108D01*
X0342261Y0067706D02*
X0343220Y0067706D01*
X0343220Y0069305D02*
X0342261Y0069305D01*
X0342261Y0070903D02*
X0343220Y0070903D01*
X0347099Y0069305D02*
X0395590Y0069305D01*
X0393991Y0067706D02*
X0346931Y0067706D01*
X0326356Y0058115D02*
X0378657Y0058115D01*
X0400510Y0062911D02*
X0410244Y0062911D01*
X0410380Y0064509D02*
X0402108Y0064509D01*
X0455262Y0089233D02*
X0456500Y0089233D01*
X0471500Y0089233D02*
X0471500Y0080183D01*
X0467750Y0076433D01*
X0467750Y0070808D01*
X0469000Y0069558D01*
X0482125Y0069558D01*
X0483375Y0070808D01*
X0483375Y0073933D01*
X0477750Y0073933D02*
X0477750Y0076433D01*
X0481500Y0080183D01*
X0481500Y0089233D01*
X0476500Y0089233D02*
X0476500Y0080808D01*
X0472125Y0076433D01*
X0472125Y0073933D01*
X0490800Y0103534D02*
X0490000Y0104334D01*
X0490000Y0109658D01*
X0490800Y0108858D01*
X0490800Y0103534D01*
X0490800Y0104472D02*
X0490000Y0104472D01*
X0490000Y0106071D02*
X0490800Y0106071D01*
X0490800Y0107669D02*
X0490000Y0107669D01*
X0490000Y0109268D02*
X0490390Y0109268D01*
X0461556Y0126851D02*
X0457792Y0126851D01*
X0456053Y0128450D02*
X0459958Y0128450D01*
X0478330Y0152427D02*
X0519614Y0152427D01*
X0551951Y0106071D02*
X0555703Y0106071D01*
X0555620Y0105927D02*
X0555497Y0105469D01*
X0555497Y0103153D01*
X0559770Y0103153D01*
X0559770Y0107032D01*
X0557060Y0107032D01*
X0556602Y0106910D01*
X0556192Y0106673D01*
X0555857Y0106337D01*
X0555620Y0105927D01*
X0555497Y0104472D02*
X0554158Y0104472D01*
X0555439Y0102874D02*
X0559770Y0102874D01*
X0560730Y0102874D02*
X0565757Y0102874D01*
X0565520Y0104472D02*
X0565003Y0104472D01*
X0564797Y0106071D02*
X0565239Y0106071D01*
X0560730Y0106071D02*
X0559770Y0106071D01*
X0559770Y0104472D02*
X0560730Y0104472D01*
X0565003Y0101275D02*
X0565994Y0101275D01*
X0566218Y0099677D02*
X0564949Y0099677D01*
X0565603Y0098078D02*
X0566296Y0098078D01*
X0566375Y0096479D02*
X0565603Y0096479D01*
X0565603Y0094881D02*
X0566453Y0094881D01*
X0566313Y0093282D02*
X0565603Y0093282D01*
X0565407Y0091684D02*
X0566083Y0091684D01*
D23*
X0509000Y0073933D03*
X0503375Y0073933D03*
X0497750Y0073933D03*
X0489000Y0073933D03*
X0483375Y0073933D03*
X0477750Y0073933D03*
X0472125Y0073933D03*
X0463375Y0073933D03*
X0422750Y0058933D03*
X0414625Y0063308D03*
X0385250Y0060183D03*
X0374625Y0060183D03*
X0374625Y0073933D03*
X0356500Y0093933D03*
X0352125Y0113308D03*
X0367750Y0123933D03*
X0357125Y0127683D03*
X0377750Y0129558D03*
X0385250Y0135808D03*
X0385250Y0141433D03*
X0374625Y0141433D03*
X0413375Y0125183D03*
X0433375Y0124558D03*
X0443375Y0124558D03*
X0454000Y0124558D03*
X0471500Y0124558D03*
X0471500Y0130808D03*
X0484000Y0124558D03*
X0474000Y0151433D03*
X0548375Y0124558D03*
X0335250Y0064558D03*
X0289300Y0064558D03*
X0263375Y0049558D03*
X0257125Y0052683D03*
X0257125Y0058308D03*
X0257125Y0070183D03*
X0269625Y0115808D03*
X0267125Y0132683D03*
X0254000Y0131433D03*
D24*
X0363990Y0101433D02*
X0364000Y0101443D01*
D25*
X0373385Y0111423D02*
X0375875Y0108933D01*
X0405875Y0108933D01*
X0410875Y0103933D01*
X0414000Y0103933D01*
X0414000Y0100183D01*
X0415875Y0098308D01*
X0422750Y0098308D01*
X0441500Y0098308D01*
X0444615Y0095193D01*
X0447750Y0095193D01*
X0447750Y0091433D01*
X0449950Y0089233D01*
X0453362Y0089233D01*
X0455250Y0089246D01*
X0414000Y0103933D02*
X0414000Y0111443D01*
X0413990Y0111433D01*
X0402602Y0098933D02*
X0402602Y0070660D01*
X0382750Y0050808D01*
X0282750Y0050808D01*
X0272750Y0060808D01*
X0272750Y0080808D01*
X0254625Y0098933D01*
X0248508Y0098933D01*
X0276160Y0107969D02*
X0281579Y0102550D01*
X0281579Y0092280D01*
X0276160Y0107969D02*
X0276160Y0116433D01*
X0271500Y0122683D02*
X0267125Y0127058D01*
X0267125Y0132683D01*
X0271500Y0122683D02*
X0357125Y0122683D01*
X0359000Y0122683D01*
X0365875Y0129558D01*
X0372750Y0129558D01*
X0373385Y0128923D01*
X0373385Y0116433D01*
X0373385Y0111423D01*
X0352125Y0113308D02*
X0349625Y0113308D01*
X0341500Y0105183D01*
X0352125Y0113308D02*
X0349000Y0116433D01*
X0317750Y0116433D01*
X0317125Y0117058D01*
X0305875Y0117058D01*
X0305250Y0116433D01*
X0293090Y0116433D01*
X0357125Y0127683D02*
X0364000Y0134558D01*
X0376500Y0134558D01*
X0380250Y0138308D01*
X0380250Y0143933D01*
X0382750Y0146433D01*
X0480875Y0146433D01*
X0495875Y0131433D01*
X0495875Y0118308D01*
X0502125Y0112058D01*
X0502125Y0103933D01*
X0507125Y0098933D01*
X0520949Y0098933D01*
X0548508Y0098933D02*
X0552248Y0095193D01*
X0560250Y0095193D01*
X0377750Y0129558D02*
X0372750Y0129558D01*
D26*
X0455250Y0089246D02*
X0455262Y0089233D01*
D27*
X0402602Y0098933D02*
X0375043Y0098933D01*
X0520949Y0098933D02*
X0548508Y0098933D01*
M02*
